,0
0,10.762870971824558
1,10.321127573196385
2,9.917887877595527
3,9.713375841475964
4,9.431729836249783
5,8.912433045188491
6,8.948439783692566
7,7.933956372597979
8,7.912054753861803
9,8.148691825334819
10,8.022595797940381
11,8.624369288369369
12,8.643383173708502
13,7.948897230074833
14,8.336944389372253
15,8.484159820662097
16,8.514241081183648
17,8.894601251378734
18,8.257349718747676
19,8.908049493435529
20,8.29127206956002
21,8.418774987575054
22,8.140588345899458
23,7.727703405491721
24,7.954566731175038
25,7.5654347210317985
26,7.6191028023036855
27,7.624997512042285
28,7.455962760882564
29,7.1931782636636985
30,7.238784133386096
31,7.005646606524384
32,7.540527392928509
33,7.757751901220231
34,8.127982739603217
35,7.940377296813605
36,7.531981483061115
37,6.159265245847529
38,5.934056355943021
39,5.387293682230372
40,6.309735435725735
41,8.284049830211375
42,9.09087122177245
43,8.944439242675854
44,8.94457782980264
45,8.295635144964422
46,7.862405916106166
47,7.465792284497641
48,7.9605202787193985
49,8.217430886300479
50,8.575460568697522
51,8.729660364193133
52,9.177885286830241
53,8.683192607603717
54,8.182721006470647
55,8.000894436732656
56,7.86060114832003
57,7.463555859867639
58,8.080222031515387
59,8.60859513667567
60,9.311101172620134
61,10.09969510146562
62,9.148688398462305
63,8.863131565737808
64,9.519190420340285
65,9.380474550705788
66,9.566849849070454
67,9.270744034196719
68,9.758720392543097
69,8.89274848722422
70,8.482766080316525
71,9.169957542751469
72,9.323589554694083
73,9.486615970964625
74,9.190323811762207
75,9.011313473755756
76,8.79671087462073
77,8.616533434549625
78,9.370255715124589
79,9.086296104391144
80,9.37983132410852
81,9.416922437601956
82,9.980937930664462
83,10.603525868872563
84,11.501227200809952
85,12.70986420493467
86,14.05001226943419
87,14.580500325849513
88,14.555040071893288
89,13.867602668796223
90,13.584792338104773
91,12.883959072137934
92,12.117978988625763
93,11.293049296338715
94,10.311223700789174
95,9.238547470145527
96,8.962131562115768
97,8.553542065306372
98,8.825301757019451
99,7.986512689422227
100,7.232448310484422
101,7.063129846154333
102,6.63766691585164
103,6.052190743752694
104,5.114465170339389
105,4.85860768162596
106,3.7122310339460043
107,2.5838991702761946
108,2.182202294148178
109,2.2958688503661455
110,2.880650140799813
111,2.42633415620082
112,3.0337739507229124
113,3.3038512899218535
114,2.832788391724019
115,2.731862706664118
116,1.7365729218065906
117,1.5224006386547762
118,1.8216072444084748
119,2.2693382575917282
120,2.9169131890945486
121,0.9375569831414299
122,0.3514082507520514
123,1.6296534922473722
124,1.6286343001552783
125,1.4072690830888965
126,0.3378530195183575
127,-0.07665813414302296
128,0.8362504645032225
129,0.9193585018639021
130,1.230136018044701
131,-0.5032701667383782
132,-0.7359536248922358
133,-2.5274649139055416
134,-2.057298966814636
135,-1.4554988205411785
136,0.31638578094693165
137,2.0873714555663434
138,3.8288110028992217
139,4.8630190825520865
140,3.5406529801828746
141,3.252714234076871
142,1.4416291153790097
143,0.2853465613450147
144,0.9707561975226767
145,0.5070236815763489
146,0.5051851337761789
147,1.4284146728458613
148,1.6427991878574963
149,2.332817623947365
150,2.375022876776793
151,3.150845036536907
152,3.0641772750764087
153,3.0576994956613905
154,2.7153798913399028
155,1.8171675191651455
156,2.0743919632732766
157,1.7777209794853959
158,2.1679320444089423
159,2.5236027423270064
160,3.465206248491967
161,2.589143800271478
162,1.7129273901343856
163,1.6741094216810708
164,2.1408975041047613
165,1.4378437581867165
166,1.0633367632983202
167,0.9821986051391037
168,1.0773031656817207
169,1.108716023850314
170,1.541478125351353
171,2.0428413502194105
172,1.847145984082465
173,2.107059960234874
174,2.010782107764862
175,2.58206591790917
176,2.9046323583367415
177,2.916369651189579
178,3.7112032834581057
179,2.931993969824993
180,2.641427218725177
181,1.9734336977310172
182,2.978019873203523
183,1.8236208812039938
184,1.6490739521423112
185,1.5951613669412577
186,0.9982303853733945
187,1.3405941611863696
188,1.8397291182458098
189,2.2190971834225413
190,2.7269868934666435
191,3.5291239220296022
192,3.989276654368912
193,4.276765055949753
194,4.44786894071044
195,5.508436273391898
196,5.318947348298639
197,5.3115130560850945
198,4.546725519819526
199,4.290940021556773
200,3.9362314591613083
201,3.2364500874689774
202,3.8886092522105904
203,4.4319934798966685
204,4.270467215219724
205,4.255955895857086
206,3.7557225706975057
207,3.8150165009766392
208,3.3911251515868575
209,3.2646686404734235
210,3.746423366386384
211,3.612217158637525
212,3.797692485345655
213,3.987622843510279
214,3.8953928600172185
215,3.5326345372655825
216,3.9629493976175607
217,3.5429777251879226
218,4.339952366180684
219,4.18948006105855
220,4.076350975563019
221,3.5574760017042744
222,3.7444536794542427
223,3.1584343122002476
224,3.0956038238288617
225,2.655249648096646
226,2.756124475418963
227,2.3841252532593225
228,2.9338371223940864
229,3.7905681420492767
230,3.2215287122831513
231,3.6241707494016797
232,3.5046836708347846
233,3.9245048286183297
234,4.36229775931186
235,4.123458094439437
236,4.520082647616708
237,4.70161800451035
238,3.920194711239345
239,4.143995823658222
240,4.188389909296725
241,4.485443601952258
242,4.305233262183044
243,4.130533979408452
244,4.006166874615129
245,4.176133597950169
246,3.591680534533075
247,3.2937516669976303
248,4.1298142407927765
249,4.0393996380917505
250,4.04665952471481
251,3.4621243164580098
252,3.073428548511755
253,2.948554297955384
254,3.750298140587581
255,3.67185273526959
256,3.733581177725509
257,3.6555918902390254
258,4.236390461247522
259,3.93334042717062
260,3.4494668109824267
261,3.693710649976208
262,3.6043015143640136
263,3.1830345705850895
264,3.34706810584887
265,3.483390302721726
266,3.4603840893467295
267,3.4799118742778212
268,3.3471525592643623
269,2.9750347157427877
270,3.3317549877737354
271,2.466998396610478
272,2.717972275829467
273,3.348594783077632
274,3.37737718209267
275,3.4565194134850414
276,3.580811101883992
277,3.7570987710280823
278,3.8484332079022847
279,4.262340272499604
280,4.006446212597213
281,4.123321750222308
282,3.542218974510073
283,3.093273847257196
284,3.3370395819131735
285,3.0878260441460146
286,3.7536157571402664
287,3.2079947971894973
288,2.9999022147239933
289,3.5574760017042744
290,3.1501847443192275
291,3.0692928873914758
292,3.155861638282778
293,2.8732112022331533
294,2.8451893322251447
295,2.9931274491054527
296,3.269254132502706
297,3.832130381140364
298,3.399427580842286
299,3.7317061928466826
300,2.8667606347810834
301,3.3969974647372627
302,3.635215028492624
303,3.5763288970133793
304,3.8188449328140917
305,3.201416485495378
306,2.9478148459378404
307,3.5880573529618554
308,3.166203484071005
309,2.8752572056621797
310,3.8609940662407416
311,3.490025039307303
312,3.5656169005727594
313,3.3756929322403164
314,3.363916662976979
315,3.0387547787136784
316,3.108485678154603
317,3.479528224016344
318,2.976526546693428
319,3.1766563685467686
320,3.611167372607269
321,3.478260174696593
322,4.101949831973527
323,3.2774833275626416
324,2.635121934918932
325,3.282076667752892
326,3.0944439750631267
327,3.0346947124582537
328,3.171077214690971
329,3.437917711940169
330,3.801626280133264
331,3.6216627342034995
332,3.9663478521316984
333,3.5298151362329566
334,3.688621215469329
335,3.742582219973131
336,3.0615674406008226
337,3.2589726197877997
338,3.331898924248018
339,3.484396350832108
340,3.728604648956841
341,3.6607841436338706
342,3.443937435987687
343,3.335239290780779
344,3.684900010670821
345,3.532292918285951
346,3.691380729874967
347,3.690915175766925
348,3.374040495735757
349,3.2811551229056706
350,3.4387761851421157
351,3.639346872113966
352,3.304368276762582
353,3.664673112298404
354,3.5790405270878773
355,3.486518960661534
356,3.4376613164115954
357,3.234016950893623
358,3.5547098173801923
359,3.6775191985159994
360,3.008248066796348
361,3.5241095595497147
362,3.3537871894744775
363,3.363929591323367
364,3.1249893879568464
365,3.2504820131616987
366,3.2627000379327993
367,3.6631910945927295
368,3.314028689257493
369,3.512612933791891
370,3.3219181437850294
371,3.8787632286838174
372,3.173489585050721
373,3.198829366059578
374,2.9559680425009107
375,3.1389248778710552
376,3.06056508311572
377,2.937884421091607
378,3.203720749907323
379,3.3125968183476706
380,3.4491141843920685
381,3.556664381186822
382,3.191677280689173
383,3.0553833490095066
384,3.2709020931583983
385,3.428165982319509
386,3.1790248856621357
387,3.313425307619799
388,3.2459155626431633
389,3.1402570590250765
390,3.785476170879686
391,4.064222446524318
392,3.7043130454887314
393,3.4643147036200164
394,3.3327334742603276
395,3.77164668416059
396,3.454570056728348
397,3.4428626379917584
398,3.063892967113128
399,3.5701261016140307
400,3.349658467041479
401,3.547448684002288
402,3.335239290780779
403,3.25569844445471
404,3.654671368888778
405,3.0561547984049495
406,3.2138822683663406
407,3.4105611539574507
408,3.0528800134106744
409,3.2475421837247773
410,3.5000073297565772
411,3.2467286696665525
412,3.4948498446365424
413,3.6223761717811382
414,3.2494889428531297
415,3.2069339675205395
416,3.16944232599425
417,3.525205520207845
418,3.317573293400818
419,3.017315848906252
420,2.7758024139719653
421,3.1320348250532346
422,2.5457605442829774
423,3.2872630088149237
424,3.590712072867377
425,3.5128702374674217
426,3.569124587556125
427,3.7592910671969504
428,3.6473249529481504
429,3.4893251222189674
430,3.565577835621036
431,3.392612353205937
432,3.3328788375944347
433,3.3782201086216155
434,3.7307692144213407
435,3.9070238815863263
436,3.39091289555946
437,3.212059629139036
438,3.277098318933099
439,3.009742361412974
440,3.3504244541128596
441,3.606002779956507
442,3.497939255031206
443,3.8235887694458914
444,3.36561625570841
445,3.307635234139249
446,3.615682796356146
447,3.191035056071573
448,2.971110796803077
449,3.1451166524017493
450,3.2614324879460117
451,3.072655688173144
452,3.2405136738319147
453,3.0687959461949808
454,3.6245558152097397
455,3.1310279290638356
456,3.3378731123059047
457,3.621301052602576
458,3.3546815431563903
459,3.3478250443123954
460,3.3968686244301893
461,3.4219159705992728
462,3.4777846460594044
463,3.6427484486821373
464,3.616753594651492
465,2.9802628246542
466,3.517909690138186
467,3.6863091139257387
468,3.632032564995581
469,3.518794154616043
470,3.941707343359762
471,3.3445553346701034
472,3.3367891698739034
473,3.50440688429284
474,3.2101533017058195
475,3.1485982509332873
476,3.3570787781058797
477,3.4247264289729347
478,2.8825465954384115
479,3.2627000379327993
480,3.0760514549219873
481,3.3731960733603072
482,3.6327198812871546
483,3.517498113039312
484,3.4167994426006203
485,3.0746754968942467
486,3.6143324495930846
487,3.701113150415746
488,3.382440363712052
489,2.8985741100493416
490,2.8451004117623637
491,3.0654451743710776
492,3.4339153175393475
493,3.507934057534455
494,3.3125968183476706
495,3.268433348928065
496,3.498007507222157
497,3.617492420410876
498,4.050967809480796
499,3.1862494177825886
500,3.466483076174513
501,3.4370593167518138
502,2.882646458626032
503,3.256743758618987
504,3.5979468906244634
505,3.8510440599801927
506,3.440809649495597
507,3.5152593191959105
508,3.3427793746266503
509,3.1349715964136697
510,2.871764872369889
511,3.377421721994094
512,3.341838570711149
513,3.2093480272195656
514,3.482146511141788
515,3.5790169473048654
516,3.464764997120794
517,3.708024791913343
518,3.1099033936637626
519,3.406956021511467
520,3.202918368513685
521,3.3462299826068476
522,3.1049144051417086
523,3.4103747193399636
524,3.44633869165727
525,3.7307692144213407
526,3.3342701807802575
527,3.0698382188366367
528,3.330231415992004
529,3.178233320989043
530,2.855953071767353
531,3.42411761119837
532,3.7044164833805575
533,3.2527651549175447
534,3.1006689482160947
535,3.2259330429695035
536,2.6443063962318667
537,2.925077480810048
538,3.1174160058487086
539,3.6279750059759595
540,3.5011909814219813
541,3.4617123745340304
542,3.2783086583772922
543,3.9397245822981595
544,3.500315689023375
545,3.3681555687086004
546,2.7898705050973547
547,2.597321037919761
548,2.5725498094672545
549,3.196668473539024
550,3.61040598633538
551,3.530003214247415
552,3.7533610748580895
553,3.498565701527485
554,3.8579246229368893
555,3.5736121022824974
556,3.0791676639811567
557,3.179827842227948
558,3.0944439750631267
559,2.881918654711371
560,3.090158422392467
561,3.0112803555297547
562,2.694623391462034
563,3.1257707564235586
564,3.1526930219262472
565,3.1200389098662527
566,3.233447282733419
567,3.341939792190876
568,3.0588065575897185
569,3.223908973740348
570,3.2521060199775236
571,3.324407735185298
572,3.470382314961689
573,3.800777008533497
574,3.397590238290738
575,3.354629098811044
576,3.1671152778673766
577,3.7634664036590535
578,3.4428626379917584
579,3.0597947428929793
580,3.0561547984049495
581,2.7881241536871064
582,2.6352433835542945
583,2.977100649894872
584,2.7644441235436346
585,3.02641470194786
586,3.1237044364891458
587,3.5172659395992443
588,3.8275122928481955
589,3.235638856278736
590,3.1949900761462677
591,3.2364500874689774
592,2.547975801963964
593,2.9720552280417687
594,2.3265345048719115
595,3.233447282733419
596,3.0692928873914758
597,2.892991330827303
598,2.7392642619518512
599,2.92898814353923
600,3.025007358495549
601,3.2885809566898185
602,3.2467286696665525
603,3.5011909814219813
604,3.2170871144994067
605,3.3057245193177685
606,3.161501265252649
607,2.6686924272201473
608,3.073428548511755
609,3.3062941595060233
610,2.7758024139719653
611,3.2963374253731237
612,3.0006569609534397
613,3.450334672894098
614,3.6436626079197763
615,3.1607971592572124
616,3.121868130746972
617,3.189387869669274
618,3.2639577714625783
619,3.2259330429695035
620,3.6506964398830006
621,2.9727996167541217
622,2.7548100705667076
623,2.73584262915473
624,3.197396997981608
625,3.0547778944189026
626,3.0685257032824005
627,2.9885161444728507
628,2.9309115227243696
629,3.353731037477904
630,3.135761263316507
631,3.581734780549768
632,3.275010159900653
633,3.684408680023074
634,3.2811551229056706
635,3.296040441494379
636,2.755113599546052
637,3.0561547984049495
638,3.2151588448332706
639,3.4174486723710014
640,3.3732287106339798
641,3.8550341211454073
642,3.4307503551019938
643,3.116913193439371
644,2.938622503531931
645,3.201416485495378
646,3.150320808500534
647,2.996370260652044
648,3.6770009487442725
649,3.7987662467885763
650,2.8595639368512953
651,3.226139900312283
652,2.6603095694700087
653,2.441862604226463
654,3.002879403195483
655,3.0739053085028445
656,3.4350665375571374
657,2.980856845325687
658,3.3029688048174757
659,3.8852816645510044
660,4.3821919878012165
661,3.9139067971653194
662,3.234827700501075
663,3.278687283697753
664,3.200611649303427
665,3.434202363034187
666,3.114767275280797
667,3.0294599521331835
668,3.510851006337755
669,3.4459986596935295
670,2.853770897521181
671,3.36561625570841
672,3.2946839029538486
673,3.076988062637703
674,2.9571930026136495
675,2.5495981415309745
676,3.3757302631622554
677,2.934200158863556
678,3.3849776449988527
679,3.7432554690986106
680,3.5977776574531237
681,3.5082112433933443
682,3.6085966269722882
683,2.8122640660303784
684,3.405413597801404
685,3.3359489703345764
686,2.755806957882428
687,3.316311158004101
688,2.781412546682842
689,3.080403711042113
690,3.2457000159415927
691,2.636376742973258
692,3.1949178840529058
693,3.2800468779180623
694,3.1504498178791778
695,2.9999022147239933
696,3.556664381186822
697,3.427905155735613
698,3.0332749020162137
699,3.023424542065789
700,2.964632680871008
701,3.078989773140208
702,3.250975305358915
703,3.243479011762441
704,3.6589459789555487
705,3.2093480272195656
706,3.4174486723710014
707,3.0636496933037827
708,2.742870567184334
709,3.3478250443123954
710,3.3200671359352
711,3.5349580813285035
712,3.2459155626431633
713,3.6223957216845
714,3.4569085177700294
715,3.601376529901961
716,3.7089539841966763
717,3.4347901773994236
718,2.9549521460024497
719,3.2437714904204196
720,3.018882895503874
721,2.7571944380984377
722,3.443937435987687
723,3.519252326730906
724,3.1742535118708948
725,3.3062941595060233
726,3.136551650164716
727,3.4830199106873794
728,3.1208213975951744
729,2.9171861312143097
730,2.767429345950677
731,2.97056787062954
732,3.284796792485193
733,3.296638049685092
734,3.211104833295002
735,3.5152593191959105
736,3.2007043352333433
737,3.473434036074856
738,2.9675973108149387
739,3.406956021511467
740,3.877063718443331
741,3.0505820368498413
742,2.869638950417041
743,3.2688528978300315
744,3.5358474827718447
745,3.304068806291342
746,2.8242778963697743
747,2.9537399504301467
748,2.8366591813398654
749,2.7338752248034957
750,3.0797589138815114
751,2.8890818117090733
752,3.4856434508127574
753,2.9007734745980702
754,3.6909226080658204
755,3.272135033449089
756,2.904022054494893
757,2.7324966642361783
758,2.8508446247024493
759,3.598038624729041
760,3.1099033936637626
761,3.470828813778647
762,2.9856355959764547
763,2.7153798913399028
764,3.5292483745569188
765,3.198913129185237
766,3.320260597034783
767,3.0407953348916577
768,3.130809405733064
769,3.2200373097815294
770,3.458248553005909
771,3.3504244541128596
772,3.047688009977026
773,2.472692356869407
774,3.257453782590164
775,3.436497499704213
776,3.8341939512527814
777,3.6436626079197763
778,2.7867200962891987
779,2.96844841380601
780,3.017315848906252
781,3.1414782582406784
782,3.0233755621822853
783,3.286927646670194
784,2.8883541159241695
785,3.2030270428955494
786,2.9855096305050712
787,2.82073385160323
788,3.355378337624434
789,2.4351117672679607
790,3.0932848882628
791,2.7407089731541685
792,2.8574103383120835
793,2.580311388302002
794,3.370649892632077
795,3.0383841972998713
796,3.1957159399265476
797,2.9892684882166076
798,3.340995829587268
799,3.8418056291013367
800,3.3967412273369426
801,3.3849776449988527
802,3.6565128747893745
803,3.3757302631622554
804,2.9757802922790155
805,3.468227491836247
806,3.03165340815076
807,3.0332749020162137
808,2.986886063725281
809,3.2627000379327993
810,3.1542766967021283
811,3.006738571850418
812,3.3656164353781266
813,3.1361620843274465
814,3.0561547984049495
815,3.2589726197877997
816,3.3208993623920935
817,3.3255470442073225
818,3.3868470279812484
819,3.5871529746312514
820,2.996134780327794
821,3.6338585740715366
822,2.965889205032772
823,2.85090453707425
824,2.759452069159587
825,3.307635234139249
826,3.0112803555297547
827,3.402384051342049
828,3.5067352284805215
829,3.309871570842113
830,2.8902550087126793
831,2.9047503761321116
832,3.0618731441121
833,2.684449410393843
834,2.8060840481999434
835,2.7627586318107342
836,3.3420463292499463
837,3.470382314961689
838,3.4903676807438306
839,3.8652660062516713
840,3.2770438933408816
841,3.055745789928117
842,3.1130150735147852
843,3.1520240515886955
844,2.96514497670935
845,2.862400540303452
846,3.304368276762582
847,3.2655877413379635
848,3.305160005254489
849,3.563837916330214
850,3.0037247319746183
851,3.2175962300912597
852,3.071882900972455
853,3.0618731441121
854,3.044008198253674
855,2.811308462521188
856,2.911320838039233
857,3.768524598734751
858,3.293032036770276
859,2.636755087422054
860,3.0353501814564323
861,3.2342610344719134
862,3.1195313518620567
863,3.3681607927911705
864,3.1455870645049777
865,3.720139148563448
866,3.3537871894744775
867,3.273363563645759
868,2.996887326424815
869,2.8631262516024254
870,2.8153162269834304
871,3.049223852731763
872,2.931211631942929
873,3.090158422392467
874,2.7965430276537564
875,3.4330553343567125
876,3.0173356923745263
877,2.987999526071128
878,3.575428571330239
879,3.3597196895946566
880,3.258514013904369
881,3.3521049794064606
882,2.8974844310358887
883,3.1422678869250875
884,2.972605925049602
885,3.0211002835558527
886,3.3156943907410152
887,3.0195491572146227
888,3.446865132705492
889,3.3342701807802575
890,3.16944232599425
891,3.314254210947911
892,3.090565754842063
893,3.468227491836247
894,3.307635234139249
895,3.567365737509319
896,2.7153200204484356
897,2.5065363245221963
898,2.533814908014566
899,3.200513958184159
900,2.891266801598533
901,3.2819783368751345
902,3.1383240254174316
903,2.8616826213132884
904,3.435930793883191
905,3.012027819852182
906,3.447731687398096
907,3.0528800134106744
908,3.090936770084661
909,3.0621066121298983
910,3.525205520207845
911,2.6663607752637084
912,3.0595724724691267
913,2.963892674232655
914,3.331898924248018
915,3.833154910025839
916,3.1814239625686818
917,3.2472395160290373
918,3.379906878911545
919,3.010514842147445
920,2.812015273175495
921,2.724260754138231
922,3.161501265252649
923,3.17903576450986
924,3.067758589459336
925,3.0241348527117644
926,3.040533907656332
927,3.0330784849896117
928,3.46515963169612
929,3.3200671359352
930,3.210959308778155
931,3.4122803449197123
932,3.282802299692106
933,3.2700749929783233
934,3.1064718229860504
935,2.569790232953289
936,2.483938047989975
937,2.6616518174776673
938,2.729743426133976
939,2.7098593414355383
940,3.286927646670194
941,3.576330737616151
942,2.9713112116916363
943,2.723552537850775
944,3.834114310020419
945,3.2667933505424527
946,3.598583678783201
947,2.751785251197947
948,3.392612353205937
949,3.0811807877161206
950,2.476418211587212
951,2.6880313594428857
952,2.947075764386611
953,3.193387253902212
954,3.0143002919115562
955,2.7591066009548544
956,2.888949911680574
957,2.5509454669226863
958,2.9464447727279395
959,3.049816708503165
960,2.96514497670935
961,2.9729853488485802
962,3.0225220989199646
963,3.434487047588931
964,3.759701366242066
965,3.267612976937347
966,3.287754094058559
967,3.231587466116852
968,3.2069339675205395
969,3.1519021027380223
970,2.9230753854408866
971,3.0317478329939846
972,3.3235776830455923
973,3.2655877413379635
974,3.443937435987687
975,3.6085966269722882
976,2.9908759824552997
977,3.155861638282778
978,2.9931274491054527
979,3.4612541618990122
980,3.082397693671022
981,3.773068223391415
982,3.286927646670194
983,2.9953027395658727
984,3.1231708954587267
985,3.047860180091846
986,3.449978604938079
987,3.443076387318423
988,3.1758443699178436
989,3.208677258829826
990,3.2079947971894973
991,3.526089665655618
992,2.8616882727019757
993,2.9735440742957793
994,2.243486944332425
995,2.5719050293561163
996,2.738019540856545
997,2.690054542214706
998,3.380875458428998
999,2.8471730272183087
1000,2.8087500653957016
1001,2.901839573960774
1002,2.594056607490734
1003,3.441994541640503
1004,3.058584266148653
1005,3.2910637013560597
1006,3.1998965463853777
1007,3.3250660731216137
1008,2.7304312859218784
1009,2.919554379944057
1010,3.4407205822613602
1011,3.3026994165762895
1012,3.4682294370978073
1013,3.544260345683889
1014,2.974289208418777
1015,2.8342491947713726
1016,2.7228849439345857
1017,2.58247986612559
1018,2.6104604711154074
1019,3.003593151918499
1020,2.689101885992844
1021,3.215803195172417
1022,3.2415801747428774
1023,3.1869569033689036
1024,3.319432274248488
1025,2.7898978132810175
1026,2.681749484852868
1027,2.873107061217256
1028,2.846451849774681
1029,2.7839159306147034
1030,3.5583694622349262
1031,3.3165280388879927
1032,3.507332083737673
1033,3.307382228932979
1034,3.2071833285539317
1035,2.503837159065011
1036,2.9235060881621746
1037,2.629446675897685
1038,2.914983843856827
1039,2.4354268320654007
1040,3.424236311646651
1041,2.9091273866847454
1042,2.9334642940202174
1043,2.971110796803077
1044,3.2943796327338055
1045,3.018072101245655
1046,3.7613824532464837
1047,3.1646727849879714
1048,3.3090412615631877
1049,2.6774495110787746
1050,3.1630862309343852
1051,2.9427205036672914
1052,2.7878002983533627
1053,3.028618187923959
1054,2.706457582769006
1055,2.862400540303452
1056,3.307126713308523
1057,2.2559380173773596
1058,3.0112803555297547
1059,3.1685996619593393
1060,2.603209813293651
1061,2.7734506975488253
1062,2.675022807367878
1063,3.3411009730648606
1064,3.219671872713797
1065,3.1710355828259775
1066,3.0052308969873893
1067,3.3647542664109853
1068,2.8991227761773453
1069,3.2323969992057044
1070,3.306553166586778
1071,3.63384631040077
1072,3.205213601302055
1073,3.520789988154298
1074,2.8167239759746905
1075,3.4390835635413866
1076,3.279668935946978
1077,2.7859505182559094
1078,3.059024789991468
1079,3.0376252801651185
1080,3.287754094058559
1081,3.2884209356483947
1082,3.426445343497825
1083,3.503820199313172
1084,3.9105906748289976
1085,3.0797589138815114
1086,3.406270562300114
1087,2.853770897521181
1088,3.0180952645638413
1089,3.0940537638353387
1090,2.9750347157427877
1091,2.9371467089960546
1092,2.885447584018486
1093,3.3622444353707364
1094,2.959689204496236
1095,2.8358157433714872
1096,2.727687530794844
1097,2.6616518174776673
1098,2.866715036307899
1099,3.504112383865703
1100,3.441033479978051
1101,3.2917027321461845
1102,3.4221511096420136
1103,3.3732287106339798
1104,3.0739053085028445
1105,2.986383186183515
1106,3.044471066273551
1107,3.248355773098308
1108,2.9183756094824194
1109,3.274582225528598
1110,3.0271755185142024
1111,2.8624043430853985
1112,3.258514013904369
1113,2.753035897002878
1114,2.9345695837311543
1115,2.6241568699058164
1116,3.2222843554107166
1117,3.274582225528598
1118,3.0878260441460146
1119,3.257334877162811
1120,3.2237114325565144
1121,3.382440363712052
1122,2.6510838037564324
1123,3.0271755185142024
1124,3.075750093562412
1125,2.9985345760244257
1126,3.2688528978300315
1127,3.3488935458085023
1128,2.978924984627467
1129,2.8230592945036794
1130,2.7604901556050625
1131,2.999281145820109
1132,2.844476432068504
1133,3.42411761119837
1134,3.3262430931055293
1135,3.2068138845782235
1136,2.8536792061363103
1137,2.6369446061291324
1138,3.0959977969271084
1139,3.0407953348916577
1140,2.8200259934134473
1141,3.3481412232166288
1142,3.353005285547222
1143,3.3673053146306198
1144,3.3622444353707364
1145,2.8292547671407706
1146,3.5058894010420536
1147,3.2104323294873356
1148,3.048287513909692
1149,3.0963776796543714
1150,3.073428548511755
1151,3.265109525777233
1152,2.855953071767353
1153,3.3748849958620326
1154,3.0559494723685856
1155,2.959689204496236
1156,3.290061016409004
1157,2.9091273866847454
1158,3.0754460709636815
1159,3.1405089161248334
1160,2.7242409267758063
1161,3.1455870645049777
1162,3.0286979880599048
1163,2.987879184030029
1164,2.62812229494377
1165,3.0188555290557537
1166,2.555376265792587
1167,2.9161823789249395
1168,3.110053623298361
1169,3.0540432082514477
1170,3.320701886627834
1171,3.236705411646454
1172,2.7797203817104372
1173,2.7235690745427656
1174,3.090565754842063
1175,3.235890430878289
1176,2.534193418386081
1177,3.012785033044683
1178,3.2746147975456443
1179,3.0847218833905417
1180,3.6205670612325003
1181,3.2746147975456443
1182,3.2696699562464713
1183,3.1949900761462677
1184,2.81296803556198
1185,3.120557216564968
1186,2.882646458626032
1187,3.2622533801395557
1188,2.7420885273046562
1189,2.7029388583107297
1190,3.1130150735147852
1191,2.793050072225723
1192,3.0780751450916486
1193,3.382506618521854
1194,3.2988209888530364
1195,2.871042547520936
1196,2.6230667538183265
1197,3.0143002919115562
1198,2.9855096305050712
1199,3.356268504543126
1200,3.1122364911363407
1201,3.4400268877372904
1202,3.1853984802183133
1203,3.17903576450986
1204,2.635905494122068
1205,2.061868702305279
1206,2.387749124821628
1207,2.47572021808284
1208,2.8537251368211183
1209,2.9312592100374375
1210,3.244811715871676
1211,3.2816138005888673
1212,3.4994404767657077
1213,3.326735955788352
1214,2.5691432201182547
1215,2.687357549223238
1216,2.7290561928911528
1217,2.8363950196157153
1218,2.483903686397321
1219,3.3503535889919407
1220,3.2565164554491655
1221,3.5620070321885624
1222,3.4961772045009485
1223,3.336911813460136
1224,2.9856355959764547
1225,3.3563591333711558
1226,2.5014123000728583
1227,2.787101731913654
1228,2.91083712655165
1229,2.9901261434921906
1230,2.7045374065857355
1231,2.7665173501601252
1232,2.8410212503663272
1233,3.2108209306645694
1234,2.8336816752651437
1235,3.0241348527117644
1236,2.9885161444728507
1237,3.1709994657354015
1238,2.911320838039233
1239,3.3121301633768394
1240,3.4140016190888915
1241,2.9091273866847454
1242,2.786090818632298
1243,2.6214173125558893
1244,2.5515212792857564
1245,2.6188003740452754
1246,3.2069339675205395
1247,3.198913129185237
1248,3.5287454843544293
1249,3.2874134231725605
1250,3.4321957812960955
1251,3.143057589989192
1252,3.0090030741385503
1253,3.1917863637047925
1254,3.694621941122327
1255,3.467790678903282
1256,3.1226479404730307
1257,3.0746754968942467
1258,2.782115514441784
1259,3.054981476061404
1260,3.181418723933573
1261,2.8695983977944337
1262,3.292720833138014
1263,2.937884421091607
1264,3.02641470194786
1265,2.6993977609312134
1266,2.908128634818148
1267,2.370991070918766
1268,2.918656370799701
1269,3.2472395160290373
1270,3.5817090361665933
1271,2.9939705433811215
1272,3.4161569330979553
1273,3.0271030080821273
1274,2.85730650534501
1275,2.9093674754925973
1276,2.7090851872965724
1277,2.835242552010201
1278,3.1806258651301973
1279,3.447386992703684
1280,3.6756783253333256
1281,3.1646078256655166
1282,3.852432085731082
1283,2.992282574485612
1284,2.705667208863558
1285,2.6842246516067347
1286,2.8911238228809037
1287,2.8732112022331533
1288,2.965373358938612
1289,2.8703202911602292
1290,2.3871252267487426
1291,3.178233320989043
1292,3.3453003090547857
1293,3.0618731441121
1294,3.008248066796348
1295,3.520564055617652
1296,3.1877909817192243
1297,2.7379537411874137
1298,2.904540751354496
1299,2.810857469378844
1300,2.79794248398003
1301,2.6202033849200332
1302,2.794102318791725
1303,2.974851591221002
1304,3.135962580468892
1305,3.3015881722837603
1306,3.1455870645049777
1307,3.2663633692468017
1308,2.6385569938798303
1309,2.6792991698437665
1310,2.6117267887961098
1311,3.099476655791649
1312,2.461423815040846
1313,3.0847218833905417
1314,2.8502461100661605
1315,3.164742988337046
1316,2.8179048353319964
1317,2.913263388156818
1318,3.0325110197117024
1319,3.104136598367169
1320,2.959689204496236
1321,3.187023501716913
1322,3.570964875891636
1323,3.546553809908678
1324,3.3117690804517346
1325,2.7734506975488253
1326,3.1854217650623347
1327,2.993791742046588
1328,3.4086643399484915
1329,3.445661527894978
1330,2.8223538685030642
1331,2.986383186183515
1332,3.1941199008981296
1333,3.611030538181866
1334,3.1750721879782797
1335,2.8164925963543115
1336,2.596667441863953
1337,2.9601972673542694
1338,3.10803048441635
1339,3.335109193333352
1340,3.252431167213271
1341,2.706457582769006
1342,2.923932692698594
1343,3.1814080479565847
1344,3.380751067329249
1345,2.772755715563576
1346,2.831000846083953
1347,2.9463373542170936
1348,2.518923893020536
1349,2.7049845357778604
1350,2.699679328482837
1351,3.03317314359495
1352,3.1454297256929364
1353,3.280694747382244
1354,2.9969651547048324
1355,2.7563433634177414
1356,3.032321904743757
1357,2.8738787882808277
1358,2.7723075856855446
1359,2.7769302673483764
1360,2.4332770767359695
1361,2.438789455984864
1362,2.4467958241994965
1363,3.0407953348916577
1364,3.267612976937347
1365,3.3054623636007925
1366,3.0499925109634263
1367,3.215803195172417
1368,3.6904499287767734
1369,3.3062941595060233
1370,2.76673377354254
1371,2.901839573960774
1372,2.900581803857779
1373,3.1049144051417086
1374,2.9826495793650967
1375,2.815786863256463
1376,2.926445933221267
1377,2.8094519915029115
1378,3.0453869855347797
1379,3.3960167255243325
1380,2.9999022147239933
1381,2.795476056373505
1382,3.1734590038369683
1383,2.62812229494377
1384,3.150320808500534
1385,3.062878115911453
1386,2.940099479171518
1387,3.216612039271376
1388,2.7571944380984377
1389,3.3082113682970764
1390,2.6286415883167726
1391,2.8200259934134473
1392,3.0324132406217745
1393,2.3499376020570506
1394,2.734607231297575
1395,2.523165667069257
1396,3.163879471059868
1397,3.201921098879924
1398,3.0280073934690126
1399,2.6910344205504066
1400,3.4903676807438306
1401,3.3362064672428207
1402,2.769286584885092
1403,2.197078406635529
1404,2.5757780348817234
1405,2.8797368516581408
1406,3.073428548511755
1407,3.2810602405234985
1408,2.6432096283090067
1409,3.40798543440522
1410,3.287754094058559
1411,3.2537313169765696
1412,3.5067352284805215
1413,3.1221300341845692
1414,2.8796514293186486
1415,2.5425419989095355
1416,2.9263563841617612
1417,2.8436681166357762
1418,3.001411778663958
1419,3.1853467469867933
1420,3.2418567837795496
1421,3.1061365600420294
1422,2.9846222149327066
1423,2.9049680026228892
1424,3.0613354965465
1425,3.2326336081854
1426,2.9477009227107906
1427,3.1965147200254656
1428,2.8359505454434175
1429,3.1099033936637626
1430,2.706457582769006
1431,2.9855096305050712
1432,3.165405453982887
1433,3.5960577370716407
1434,3.208677258829826
1435,3.0886032183151713
1436,2.9850227800417843
1437,3.582607420312006
1438,3.2659738006248373
1439,2.7881750102007317
1440,2.6934331929093736
1441,2.7762338260803556
1442,2.984008791771709
1443,2.884611873999369
1444,2.577718912226304
1445,2.7387115752598925
1446,2.9445396220673756
1447,3.2561724735694066
1448,2.7989572116366217
1449,3.0105274994856024
1450,2.9448610406432794
1451,2.7776273422059163
1452,2.824987889256714
1453,3.317362105871558
1454,3.071882900972455
1455,2.8768328116543485
1456,2.7090851872965724
1457,2.7556536289590947
1458,2.4665073515613503
1459,2.806645816516813
1460,3.2130819716664667
1461,3.37737718209267
1462,3.5898096252733236
1463,3.8848406697139146
1464,3.6619320842937335
1465,2.4552592076102915
1466,2.931642525072818
1467,2.7601512736454823
1468,2.9022414713757
1469,2.5447990737334223
1470,2.9671590699358297
1471,3.2480493690862944
1472,3.222902644776428
1473,3.295209828080079
1474,3.4233850731896944
1475,3.0588065575897185
1476,3.7223586456430593
1477,3.2634579803757466
1478,3.0561547984049495
1479,2.782516104020729
1480,2.702257837914039
1481,3.6085966269722882
1482,3.415096980719352
1483,2.832260552166628
1484,2.9675973108149387
1485,2.662334662143201
1486,2.535474146838623
1487,2.654285747847097
1488,3.1249893879568464
1489,2.7881241536871064
1490,3.4921163003148195
1491,2.9604417535362977
1492,3.1591266284096715
1493,3.078989773140208
1494,3.010514842147445
1495,3.297403807264148
1496,3.1296828223421684
1497,3.132819717682544
1498,2.8060840481999434
1499,3.51323849478561
1500,2.8530536945296086
1501,2.8403140055330174
1502,3.363086630643065
1503,2.9826495793650967
1504,2.7804188571161785
1505,2.7972424382052363
1506,2.8919959647131392
1507,2.9408386741680643
1508,2.720116361133404
1509,2.7769302673483764
1510,2.535474146838623
1511,2.9945470503739138
1512,2.7057781440825606
1513,2.791640633611557
1514,2.928654621542203
1515,2.7965788525704784
1516,2.8091895834189096
1517,2.9892684882166076
1518,2.697498895958561
1519,3.464283948940098
1520,2.8703202911602292
1521,2.871764872369889
1522,3.104572238330872
1523,3.0667373776000066
1524,3.0484558947164624
1525,3.4249803480488574
1526,3.412476250040089
1527,3.431063563860261
1528,3.0067939615734
1529,2.9096224049878896
1530,2.599938179154231
1531,3.281245781053295
1532,2.8659949535269447
1533,3.0272425172836996
1534,2.9169131890945486
1535,2.987879184030029
1536,3.309871570842113
1537,3.657372916306101
1538,3.197313899125154
1539,3.3571987283543026
1540,3.046153712142465
1541,2.37874230730015
1542,3.130018585646387
1543,2.8925748152970328
1544,3.073428548511755
1545,3.1870543076424664
1546,3.159917562781704
1547,2.7324601298613
1548,2.6619950418354685
1549,3.0362174964874975
1550,3.0385046930541844
1551,3.017315848906252
1552,2.744954799984847
1553,3.269254132502706
1554,2.871764872369889
1555,3.261065780450145
1556,2.862400540303452
1557,3.255358237579925
1558,3.1099033936637626
1559,2.9750347157427877
1560,3.268433348928065
1561,2.7641534017348017
1562,3.5111152422617464
1563,3.109269293352895
1564,3.2101533017058195
1565,3.1917286637570528
1566,3.104136598367169
1567,3.0248329219371572
1568,2.5751319003681536
1569,2.7556536289590947
1570,2.130685091170926
1571,2.615017272371086
1572,3.1670015905263385
1573,3.0392679609289113
1574,3.1790246236197355
1575,3.0871180996744054
1576,3.1901870761427054
1577,2.837706175063582
1578,2.968124739584224
1579,3.1679069384247205
1580,2.742007395860925
1581,3.4221511096420136
1582,3.0127868893405347
1583,3.3563138409619406
1584,3.3790631114949363
1585,3.044008198253674
1586,2.9729853488485802
1587,3.0052308969873893
1588,3.0695671823091595
1589,2.278013583403958
1590,3.0051928006745827
1591,2.728369025154518
1592,3.2529182999331474
1593,3.001411778663958
1594,3.0453869855347797
1595,2.62812229494377
1596,3.03545575837845
1597,2.7228849439345857
1598,2.7874798390857287
1599,2.7575559237639475
1600,3.3046306465376176
1601,3.5006212287006857
1602,3.073617453197382
1603,2.981760205553097
1604,2.2131564203473424
1605,2.549301483690413
1606,2.319387691196731
1607,3.03317314359495
1608,3.1249893879568464
1609,3.1972373561264855
1610,3.6012728320608653
1611,3.742042522290615
1612,3.4530659586590016
1613,3.0105274994856024
1614,2.8143767441557346
1615,2.9202832878422185
1616,2.550238952603417
1617,2.8818221848968752
1618,3.2462193167480047
1619,2.942649640199438
1620,3.434202363034187
1621,3.1148685793529323
1622,2.63325931427774
1623,2.9685460534578145
1624,3.1229171976567325
1625,3.034803508720872
1626,2.863118526287692
1627,2.979945225334869
1628,2.781117398279664
1629,2.9327287978554977
1630,3.355471430463359
1631,3.261065780450145
1632,3.212426485938354
1633,3.1239546337404485
1634,2.83312011268714
1635,3.28890909720233
1636,3.0828390052655914
1637,3.3342701807802575
1638,3.714164905047729
1639,3.345213097214462
1640,3.240773540631036
1641,2.9096224049878896
1642,2.344042702513663
1643,3.0523004963713656
1644,2.9091273866847454
1645,3.2093480272195656
1646,2.4598410333886473
1647,2.916451865766801
1648,3.1237044364891458
1649,3.334403486908127
1650,2.68286693918766
1651,3.254063986580152
1652,2.9105892210428097
1653,3.214033973985165
1654,3.0105274994856024
1655,2.7256127860789285
1656,3.254063986580152
1657,3.056510485968985
1658,3.1766400717274768
1659,3.042946910632233
1660,3.368150044564986
1661,2.802243743631201
1662,3.028618187923959
1663,3.2582651578914827
1664,3.4437308175028494
1665,3.006738571850418
1666,3.8246241837973973
1667,3.314254210947911
1668,2.75358593175218
1669,3.3317549877737354
1670,2.766946597169471
1671,2.375691360363268
1672,3.074202112929999
1673,2.700764853701307
1674,2.9030921483302516
1675,3.190932271082353
1676,2.8488230737355984
1677,3.2332069375517882
1678,3.323398204159765
1679,2.9567115874721397
1680,3.0592454382556804
1681,2.78241171543607
1682,2.8906789996934745
1683,2.724260754138231
1684,2.834392481233008
1685,3.221101916237426
1686,3.3219181437850294
1687,3.4656300615059092
1688,3.464738115271427
1689,3.2535849883895605
1690,3.654358435423879
1691,2.575627241398202
1692,2.9720552280417687
1693,2.774589062473987
1694,2.253333136866385
1695,2.937884421091607
1696,3.008248066796348
1697,3.179827842227948
1698,3.405413597801404
1699,2.9245512624690697
1700,3.1806258651301973
1701,3.453811551265604
1702,3.089380783417064
1703,3.121343267045195
1704,2.9220385271645046
1705,3.0120223525687915
1706,3.2267394191580867
1707,2.2882913892637995
1708,2.531156178825085
1709,2.340838821293274
1710,2.821442064955584
1711,2.7174225703006103
1712,3.158531975518358
1713,3.217420959808531
1714,3.2519453998217642
1715,3.947652359559364
1716,3.1033588637036122
1717,3.103698956290817
1718,2.9488613429529136
1719,2.6418786706680044
1720,2.5889225597790584
1721,2.6794785171724986
1722,2.8136720700198787
1723,2.8875022546437896
1724,2.5661172956646308
1725,3.2517837893854127
1726,3.111767476975475
1727,2.9540231509370627
1728,2.9924756311258474
1729,2.972605925049602
1730,2.5364849594000614
1731,2.204256831630373
1732,2.7146364075001124
1733,2.5195565369060913
1734,2.8516206607153274
1735,2.73109023711733
1736,2.6181468218058197
1737,2.85520609203416
1738,2.761875380053481
1739,3.1598311244690187
1740,2.597345951584495
1741,2.9804138282075643
1742,2.945281049729584
1743,3.3378731123059047
1744,3.3250660731216137
1745,2.624039750465247
1746,2.701709212160517
1747,3.341838570711149
1748,2.887373146255746
1749,2.6307723913677563
1750,2.620299368716009
1751,2.546727782043328
1752,2.8790102185342623
1753,2.7174225703006103
1754,3.047688009977026
1755,2.8624043430853985
1756,2.8595313139375054
1757,3.0524985492582433
1758,2.50009365290907
1759,2.498328759676861
1760,3.3242320997568364
1761,3.0294599521331835
1762,3.4270481763025398
1763,3.0546119741020186
1764,3.0165599751170697
1765,3.1798258707414297
1766,2.9549521460024497
1767,2.9183756094824194
1768,2.3443842845969085
1769,2.7570337245951446
1770,2.1200269723209737
1771,2.8544884608871257
1772,2.5008483184697043
1773,2.9923764819609784
1774,3.198199892067769
1775,2.7734506975488253
1776,2.8127227276358373
1777,2.856643022787811
1778,3.4629952633931347
1779,3.3150831903367126
1780,2.2750716205590242
1781,2.6162617861770094
1782,2.439403316719668
1783,2.941977020969332
1784,3.1600093654786736
1785,3.226139900312283
1786,2.945599012613692
1787,2.4378636734159973
1788,2.391334288448205
1789,1.534208458685228
1790,0.39956242069599707
1791,0.04356507918054915
1792,-1.9724492642495304
1793,-5.109025970028588
1794,-5.503110682105193
1795,-5.656259666711167
1796,-4.9439246146466
1797,-4.075575135383712
1798,-3.626471329676385
1799,-3.468650365005059
1800,-1.8577440808712617
1801,0.043301646747278634
1802,1.5358613427682997
1803,1.2752298529557768
1804,1.0927025198916671
1805,2.577857741214829
1806,3.2552265642405285
1807,3.2498047881443783
1808,3.1260691773470035
1809,3.808298638378424
1810,4.275024449013468
1811,4.583770753169215
1812,4.784081150775134
1813,5.133825931476362
1814,4.114387165089377
1815,3.860551337890942
1816,4.313265436676705
1817,5.226278672548929
1818,4.611584049451202
1819,3.580811101883992
1820,3.313196295560855
1821,4.166692523450391
1822,4.706331676228254
1823,4.6863642588315
1824,3.523195922765707
1825,3.4249803480488574
1826,2.8789287665737584
1827,2.1556593933975856
1828,1.6003435865102411
1829,2.663667866334001
1830,2.4882877118440807
1831,1.6517514688056285
1832,2.085675347462989
1833,2.801049952307868
1834,2.4556485097694756
1835,1.2650444865368269
1836,1.0225157782232261
1837,2.004749843259571
1838,1.9437133958390043
1839,1.9518430609629156
1840,0.9080037353239548
1841,0.8229115486618028
1842,2.0326383350515616
1843,1.609723939747743
1844,1.0040774245263537
1845,0.730112015013604
1846,0.8639026775084176
1847,0.9247421032461176
1848,1.2268555911805326
1849,1.4551328564433792
1850,0.445701577982995
1851,-0.028667489192895877
1852,0.4839746616889473
1853,0.76102637095066
1854,0.1311056838596601
1855,-0.25718093594653535
1856,0.31277451665102185
1857,1.0235448018010929
1858,1.5955269706406279
1859,2.8801939877016682
1860,1.1443328396554597
1861,0.8987353196186763
1862,0.6723532833288742
1863,1.0934059463729295
1864,2.5128868211726596
1865,3.4402600135993007
1866,2.8501890645617554
1867,1.9581851845630849
1868,0.7779140329354008
1869,1.3839611683699116
1870,1.4787342356021143
1871,2.3015307376648466
1872,2.3325508979402096
1873,1.1661653168749386
1874,0.8042995214177665
1875,1.6534089929704394
1876,2.345808042367238
1877,3.7815777113430804
1878,3.0639293848940365
1879,1.4987968540242993
1880,0.4303506803569306
1881,0.5403750367922722
1882,1.5836114589976096
1883,2.5248366589402536
1884,2.655249648096646
1885,1.653556145677621
1886,1.2688641704892807
1887,2.0693432413509405
1888,2.575429995937337
1889,4.053780044465465
1890,3.4350665375571374
1891,2.8210276421292675
1892,2.18040479057147
1893,2.329434322831487
1894,2.795476056373505
1895,3.278687283697753
1896,3.0890173740287192
1897,2.3552683325160144
1898,2.8616882727019757
1899,2.560588342379477
1900,3.170283970651842
1901,3.848049472983315
1902,2.2203254285716327
1903,2.160534293425
1904,1.6353451153112954
1905,1.269222775212925
1906,2.308943472896366
1907,3.3539480341361583
1908,3.8633455961723877
1909,4.048425143776805
1910,3.385824365699899
1911,2.3055804824298387
1912,2.737266008284005
1913,2.73109023711733
1914,2.911561504624829
1915,3.3292435822894793
1916,3.08634917388736
1917,2.568874368206318
1918,3.2283540390831043
1919,3.6626245290913815
1920,3.512612933791891
1921,3.7304625510134057
1922,2.5358476949004474
1923,2.6914049304532726
1924,3.1281168864972555
1925,3.4465238686409942
1926,4.379030791290401
1927,4.10393857736195
1928,3.223908973740348
1929,1.720934941016079
1930,2.296920001783444
1931,3.016538397935081
1932,2.9917285818688484
1933,3.293550193463722
1934,2.7413987174883037
1935,2.4437102616193203
1936,1.9209992375069678
1937,2.1745593333801585
1938,2.699679328482837
1939,2.948554297955384
1940,3.2235156713959188
1941,2.953460227063101
1942,2.3631516277467273
1943,2.7584152022233437
1944,2.408014158763357
1945,3.054981476061404
1946,3.643932991708766
1947,3.135761263316507
1948,2.9345606743568493
1949,3.318196251592836
1950,3.0613354965465
1951,2.9916261972475886
1952,2.7501464645426967
1953,3.123428139486827
1954,3.089791528540624
1955,3.179829795953286
1956,2.9319536453634436
1957,3.1694911229682035
1958,3.561886969942737
1959,2.855924376816255
1960,2.709947811915519
1961,2.773005676764131
1962,2.7513856378058112
1963,2.815786863256463
1964,3.2459155626431633
1965,3.1037909862879705
1966,3.139716858942355
1967,2.8659949535269447
1968,2.922471897273122
1969,2.9275915209918635
1970,3.245403186624796
1971,3.6650262954003376
1972,3.3476659886832727
1973,3.227760800098441
1974,3.037741808091233
1975,3.2343329094269855
1976,2.6550438601130217
1977,3.1885090362772206
1978,3.636783792477691
1979,3.8485610992439185
1980,3.344650393809259
1981,2.9692851164465646
1982,3.01502648444541
1983,3.0615674406008226
1984,3.36133672492362
1985,3.4937522386377973
1986,2.906433214995193
1987,2.5101013802769185
1988,2.491416682736112
1989,3.1071275300283165
1990,3.10803048441635
1991,3.2884209356483947
1992,3.058584266148653
1993,2.7548100705667076
1994,2.6837740575786353
1995,2.9629139228198307
1996,3.330080069562891
1997,3.7006830329544282
1998,3.571843519279092
1999,3.0415597530748357
2000,2.835242552010201
2001,3.2887526903888475
2002,2.9532845586308687
2003,3.2241142305908608
2004,3.716036785450277
2005,2.577718912226304
2006,2.6110695776599084
2007,2.2586192220468715
2008,2.8544884608871257
2009,3.671464548162082
2010,3.791077892096473
2011,3.6497819927131063
2012,2.9901261434921906
2013,2.6819800162767384
2014,2.99023590504228
2015,3.1853984802183133
2016,4.320867872567345
2017,3.9772638998221685
2018,3.2766587480939537
2019,3.168646621766429
2020,2.756659071871908
2021,2.811047734791677
2022,2.91764436532874
2023,3.101378624384706
2024,3.160626348840876
2025,3.4512033254352374
2026,3.3046306465376176
2027,3.1948521451035483
2028,2.2814939080109986
2029,3.036866432296126
2030,2.5441592684133747
2031,2.340211157629464
2032,2.690729429319377
2033,3.082397693671022
2034,3.1894710876241277
2035,3.531762753094139
2036,2.704420565596932
2037,2.8035546193139202
2038,2.7399493913436577
2039,2.6090660383567887
2040,2.705212354228303
2041,3.004435773329185
2042,2.6177439032393197
2043,3.3125968183476706
2044,3.34706810584887
2045,3.1037909862879705
2046,3.386671164034698
2047,3.3453003090547857
2048,2.562692004064483
2049,2.8372401437510346
2050,3.08634917388736
2051,2.7646494342099515
2052,3.511468689985866
2053,3.508154213017179
2054,2.978924984627467
2055,2.970024547198301
2056,2.717323874281379
2057,2.748199986509098
2058,2.381162560692244
2059,2.328513658456936
2060,2.822859269023426
2061,2.936762126049922
2062,3.4001394697224825
2063,3.002972061511632
2064,2.941913444131412
2065,2.49393133501186
2066,2.249695377460299
2067,2.8358157433714872
2068,3.5620070321885624
2069,3.3026994165762895
2070,3.2589726197877997
2071,3.054981476061404
2072,3.1543880295614946
2073,3.1671745814171777
2074,3.0271030080821273
2075,2.73040566575382
2076,3.175048741823563
2077,3.3462299826068476
2078,3.245103193710505
2079,2.9968149531137467
2080,2.7050990461944333
2081,3.0932848882628
2082,2.68399410329964
2083,2.6260099553408662
2084,2.6242750236078383
2085,2.437253944144277
2086,2.98190385535925
2087,2.807346691995585
2088,3.0415597530748357
2089,2.5307595225459787
2090,2.722177082774971
2091,2.9954669486090464
2092,3.1790302192641704
2093,3.2039405598644177
2094,2.93275572306446
2095,2.6579927646514565
2096,2.753728210648339
2097,2.593404917833534
2098,2.853770897521181
2099,3.4011359246231985
2100,3.0097587684816336
2101,3.7248951391359046
2102,3.254544740086583
2103,2.646058035493667
2104,2.6927566741445026
2105,3.2818762476521925
2106,3.6650262954003376
2107,3.8313066574933745
2108,3.480504063088409
2109,3.198199892067769
2110,2.8141384152504445
2111,2.370486251955701
2112,2.2665319219385176
2113,3.190932271082353
2114,3.1304665376087457
2115,3.109269293352895
2116,3.1885461218369846
2117,2.452398792664965
2118,2.886535075553249
2119,2.783522228604374
2120,3.237229020296639
2121,3.2899053457755874
2122,3.197313899125154
2123,3.1455870645049777
2124,2.943717826158008
2125,3.276984949382015
2126,3.862207981866747
2127,3.7740119614375858
2128,3.244522846822869
2129,3.453312585978312
2130,3.5977776574531237
2131,3.7317061928466826
2132,3.700184657024536
2133,4.881537723859047
2134,5.899290567882744
2135,7.193197930433445
2136,8.808363139814304
2137,10.402641473566275
2138,12.847941989132298
2139,13.431227821621546
2140,14.476002118160656
2141,14.524792202670811
2142,13.992165269374071
2143,11.921348189624226
2144,9.562146279184232
2145,7.509520257026289
2146,5.901302050274569
2147,5.589986599758601
2148,3.3538432051418594
2149,0.4461494046558369
2150,-2.3799007162645025
2151,-5.224187256354595
2152,-4.996370611346099
2153,-4.670369333222144
2154,-4.635071711031056
2155,-4.576776596718649
2156,-5.280037121136296
2157,-6.278435992726797
2158,-4.998319281377345
2159,-3.5754394382873214
2160,-3.1742535118708948
2161,-2.0423049882869524
2162,-0.9944642296067142
2163,-0.11516548819103242
2164,0.6152878576725037
2165,1.0043288670555965
2166,1.6650204881530888
2167,1.4235570590375242
2168,1.8060225868531665
2169,2.9862607688553124
2170,2.2698134110725077
2171,2.480104409589758
2172,2.2164231687852953
2173,2.532274617923037
2174,2.815555816685616
2175,3.2024227815922317
2176,3.281245781053295
2177,3.289240604556387
2178,2.8703202911602292
2179,3.7252295305717364
2180,3.6176619511302217
2181,3.6040805904677597
2182,3.3339842976475014
2183,3.0452334051546064
2184,2.5764928177112507
2185,2.617080267438917
2186,2.599938179154231
2187,2.189862001280642
2188,2.571564892804887
2189,2.489551401493306
2190,2.5674013825851882
2191,2.5558921843028446
2192,2.995551094676374
2193,2.7916642949371524
2194,2.0982251181211833
2195,2.47083362800114
2196,2.607849415101322
2197,2.9846222149327066
2198,2.770911887700981
2199,2.690729429319377
2200,3.1526930219262472
2201,2.529720643060552
2202,2.291754856760579
2203,3.2069339675205395
2204,3.4195796559718525
2205,2.773704404261276
2206,3.229383327744972
2207,3.063892967113128
2208,2.5579528181671884
2209,2.7479697016007867
2210,2.8838900348357686
2211,2.9833953717561665
2212,3.593152146919275
2213,4.506111646099482
2214,5.090983612775044
2215,5.290080668456658
2216,5.682223583237342
2217,8.201973462825103
2218,10.322168907121327
2219,11.236671216566192
2220,11.38502835019105
2221,10.96861032468832
2222,9.897324575433261
2223,9.704610876874067
2224,9.249416256690367
2225,8.563320097158941
2226,5.658073077006588
2227,3.4021414521741695
2228,0.5810702676454957
2229,0.07304218482384021
2230,0.3637283487690318
2231,-0.4278867383233967
2232,-2.159163226157609
2233,-3.1693493113202895
2234,-3.2257680544948784
2235,-2.571869719148947
2236,-1.0740792539826964
2237,-1.999392520128537
2238,-1.77951602077157
2239,-1.7871852260426324
2240,-1.4492866970316278
2241,0.20235397671524666
2242,0.5843387501527183
2243,-0.20436461420700525
2244,-0.028942653159979154
2245,0.466756560195929
2246,2.098073027299404
2247,1.722983674259843
2248,1.955961473231967
2249,4.14524893105028
2250,4.0926936873403745
2251,3.3345418231733976
2252,3.0387547787136784
2253,3.4221511096420136
2254,3.904420622646715
2255,3.9194284089508398
2256,3.391442632902507
2257,3.9629493976175607
2258,3.5388188225817028
2259,3.7756069661348484
2260,4.35326815299733
2261,4.107385805878575
2262,3.6705433078045413
2263,3.7911605858437936
2264,4.08358158046376
2265,3.763084266443287
2266,2.024103337165849
2267,3.003505181769664
2268,5.155693816099907
2269,5.719219598445497
2270,4.5566889855367245
2271,2.5741521424700813
2272,1.741319207005262
2273,1.409551279438963
2274,0.6359608798690219
2275,1.6207407510150846
2276,0.22981037877223764
2277,-0.014446481802410777
2278,1.3453318590195196
2279,2.76345584091739
2280,2.6311167467278187
2281,1.1411397894325654
2282,1.024857706117351
2283,2.596667441863953
2284,3.030810183145784
2285,3.4841334698807858
2286,2.930237697257801
2287,2.8127227276358373
2288,3.0695671823091595
2289,2.3515075109691623
2290,2.440632466710928
2291,2.853004610612772
2292,3.862329986140995
2293,3.4733893797394804
2294,3.1607092158362873
2295,1.7759295547952563
2296,2.373891833024722
2297,2.4601885205748215
2298,2.8616826213132884
2299,2.3741072667829215
2300,2.0377269722900726
2301,2.4023026832957206
2302,3.4174486723710014
2303,3.179829795953286
2304,2.8945884482212514
2305,2.4682405366945988
2306,2.3215287750718403
2307,3.0090030741385503
2308,3.004477472295128
2309,2.8919959647131392
2310,3.275834246807274
2311,3.4968178171172775
2312,3.3198327383934165
2313,2.9835367795258487
2314,1.704641492761726
2315,1.6324467759180032
2316,1.6232109768984089
2317,2.219316540247599
2318,2.1853592187672244
2319,2.498279926549973
2320,1.9942123334535702
2321,2.6019046303090536
2322,3.0847218833905417
2323,3.1049144051417086
2324,2.695791152383546
2325,2.1575779059953537
2326,2.9074422950063963
2327,3.6191334332223826
2328,2.9720552280417687
2329,2.3170585218784847
2330,2.308365915823765
2331,3.6681560364297123
2332,3.4307503551019938
2333,2.5498332313541696
2334,1.5915353190835921
2335,1.6216909757125022
2336,2.0474789242306484
2337,2.802243743631201
2338,2.6051703179985153
2339,2.4070601891868217
2340,1.5923320186969208
2341,1.9620095135111797
2342,2.6284944725880344
2343,2.4422072460632136
2344,2.034440145395112
2345,1.7935234379230551
2346,2.246022389300038
2347,2.556663761899183
2348,2.864524196700248
2349,2.6091001934986435
2350,2.650284988601155
2351,1.7953357881794352
2352,1.6286132961648487
2353,2.9482498885111967
2354,3.2562951382966503
2355,1.9143456770180742
2356,2.1285466680477922
2357,0.9999977375618238
2358,2.4720723858658773
2359,2.950034012554015
2360,2.11527871420126
2361,2.391334288448205
2362,1.8588409042309073
2363,1.9382771898931328
2364,3.0952205327213584
2365,2.729025478965722
2366,2.197078406635529
2367,2.8486879042389814
2368,2.207585752932757
2369,2.530358719067615
2370,2.4720723858658773
2371,1.7067924908748933
2372,1.998539115561532
2373,1.7939396082220578
2374,2.181637393015126
2375,2.6220724976644387
2376,2.320553912796542
2377,2.780998765916395
2378,2.5241979740159946
2379,2.154892274562177
2380,1.6619377007089386
2381,2.3787816689807277
2382,2.285439081885162
2383,2.1296716712221997
2384,2.464657900426619
2385,2.6927566741445026
2386,2.293489909017018
2387,2.1953796698449835
2388,2.2911932445560867
2389,2.216602348587885
2390,2.6025590254055637
2391,2.364206801196323
2392,2.1713079286001324
2393,2.442413876629857
2394,2.503373218812567
2395,2.5908006322293717
2396,2.734565167166641
2397,2.247998806911932
2398,2.5394487519092293
2399,2.240676382822461
2400,2.8242778963697743
2401,2.4482744128412084
2402,2.5489576522046953
2403,2.542571441196048
2404,3.116913193439371
2405,3.993249638972927
2406,3.4583288844569386
2407,2.5057131166042814
2408,1.7483939475174664
2409,0.9778448087550159
2410,1.5157092252187598
2411,2.0731478922436146
2412,1.7435586665350258
2413,1.7304611022644594
2414,1.6295713473178208
2415,1.9967111400945114
2416,1.7439971975045285
2417,1.9664640118636338
2418,2.237538374881446
2419,2.7563433634177414
2420,2.2608742216435607
2421,1.912984506090449
2422,1.9412404382071196
2423,1.743622441543061
2424,2.201490461474908
2425,2.412392936583865
2426,2.288895429203037
2427,2.42657328652151
2428,2.420115522465369
2429,2.1594491524679147
2430,1.9564558845427886
2431,2.6656621292176954
2432,3.0067939615734
2433,3.144643956511774
2434,2.652283860596011
2435,2.9397482176892753
2436,2.41010831123355
2437,1.4379001255918422
2438,2.2923454318709826
2439,1.905783488825828
2440,2.8710901404156086
2441,3.4903676807438306
2442,2.767901416606091
2443,2.5953971931062414
2444,2.1472214793565088
2445,2.52208977425045
2446,1.8075176729386178
2447,2.2268836349057928
2448,2.40834527784177
2449,2.5935033504247307
2450,2.1540393093825565
2451,1.7190750827067343
2452,2.4174549775561145
2453,2.335232291837102
2454,3.071320670486282
2455,2.9506317990031334
2456,2.380566830596019
2457,1.3581377613924597
2458,1.9508513969925079
2459,2.342610212208008
2460,2.468862202428899
2461,2.9567115874721397
2462,3.066991858722207
2463,2.922771973943444
2464,2.407539936127039
2465,2.7528972946061137
2466,2.521456117014123
2467,2.4354268320654007
2468,2.6154615917279123
2469,2.9071660760346374
2470,2.8342491947713726
2471,2.251641914556598
2472,1.7550309654684488
2473,1.6796175699106861
2474,2.3474550368937064
2475,2.219209194016138
2476,2.5489576522046953
2477,2.8232573271441894
2478,2.867464763983953
2479,2.7400195755517465
2480,2.19589290244588
2481,2.700896270351863
2482,2.170018753565072
2483,2.812015273175495
2484,2.4427517563832994
2485,2.0859623200730892
2486,2.093317324852755
2487,2.0454080695784564
2488,2.523165667069257
2489,2.254122226242558
2490,2.372180430386995
2491,2.6864780603124174
2492,2.9071660760346374
2493,2.3996950800247103
2494,2.6388168276478248
2495,3.229740729522602
2496,2.898754694163376
2497,2.0474662177239966
2498,2.498377904466995
2499,2.607163241131835
2500,2.7263079488241364
2501,1.8337512129089901
2502,1.2179591549728834
2503,1.5571947419588685
2504,2.347940498175232
2505,3.4475617143752415
2506,3.6665029908908835
2507,3.4422154175380855
2508,2.3405199774478156
2509,2.476418211587212
2510,2.5170281224943074
2511,3.047688009977026
2512,2.7337938576549115
2513,2.692080770588512
2514,2.231172715868672
2515,2.531930539575957
2516,2.3197890934551157
2517,2.1756452250564258
2518,2.370300939901234
2519,1.5462006707704459
2520,1.9975365788105204
2521,2.4768191229992267
2522,2.8797368516581408
2523,2.1448499730395096
2524,1.716479189014785
2525,2.4858056722886834
2526,1.8466937409488735
2527,1.6176041044156055
2528,1.3516059209787072
2529,1.2538169636055856
2530,2.4495052280821055
2531,2.491425423395038
2532,2.813216711212094
2533,2.6819800162767384
2534,2.479034059376929
2535,2.769979830043158
2536,2.6922625187138505
2537,2.7480870142310985
2538,2.7160605358324053
2539,2.1051963779240612
2540,1.9551203169097575
2541,2.461423815040846
2542,1.8927846149975767
2543,2.8274758620208336
2544,1.8350334870365677
2545,2.272788007597721
2546,2.593404917833534
2547,2.3751585665068338
2548,2.1216300244256394
2549,1.932871295754544
2550,2.300885037851931
2551,2.4733123856896033
2552,3.2537313169765696
2553,2.7098593414355383
2554,2.690054542214706
2555,2.6902467897399873
2556,1.9625035284964283
2557,1.8708044689620975
2558,2.0474789242306484
2559,1.9624099917306095
2560,2.5811952755565657
2561,2.271768176031723
2562,1.9115454335531554
2563,1.8217152236405634
2564,2.1345269881140516
2565,2.2745002291928587
2566,2.5752845503789032
2567,2.975209974829695
2568,2.6813092338381392
2569,2.298646891759003
2570,1.2579296822395303
2571,0.8277856957910762
2572,1.2240807404480853
2573,1.1711772842666341
2574,0.6469715242804254
2575,-0.4307821087736485
2576,-1.100034384732082
2577,-0.24784124813776132
2578,0.1881354399604118
2579,-0.3133966221081035
2580,-0.7028897229718039
2581,1.194682859190783
2582,2.4140495605862227
2583,3.2405136738319147
2584,2.614950373874115
2585,2.8724393127985772
2586,3.5479054036775257
2587,3.8453092002401186
2588,2.056033904013027
2589,0.15603994821707676
2590,-0.9029086461513903
2591,-1.207727307653447
2592,-2.38473005295389
2593,-3.4513419903392513
2594,-4.674965306457542
2595,-3.8300995481857663
2596,-1.4863780986601414
2597,0.9119030191899817
2598,2.166217379634446
2599,3.0367546270951062
2600,2.6554112094086912
2601,2.766247912123532
2602,3.478260174696593
2603,4.271120558076145
2604,3.980877885264884
2605,3.437102647009513
2606,3.27296097981812
2607,3.88421791278688
2608,3.7814527788880556
2609,4.754047407419044
2610,5.150568797451771
2611,4.338755198999463
2612,4.113061535709963
2613,4.3590181474528364
2614,4.10413299348007
2615,4.329680135610338
2616,4.265944232953281
2617,3.498250810469989
2618,3.5225550186499714
2619,2.6981777981969812
2620,3.0687959461949808
2621,3.921568429936625
2622,3.4530659586590016
2623,2.30139342769291
2624,2.1696858678740227
2625,1.9982134718386586
2626,2.085675347462989
2627,2.102045351591255
2628,2.709947811915519
2629,2.6855550403373734
2630,2.511734755959503
2631,2.6340929386071594
2632,2.826230517541524
2633,2.328273576434507
2634,1.2270638519512902
2635,0.7170554914830215
2636,1.844381510168406
2637,1.9529994387074237
2638,1.5718723971732884
2639,1.3338465197081693
2640,1.6834320625421229
2641,2.1597471319504535
2642,2.8213530629638126
2643,2.1398457827468076
2644,1.4022533302073208
2645,1.696367021699891
2646,1.437971706335686
2647,1.478271615156785
2648,2.1786765689186036
2649,3.138040542262083
2650,2.5524562636608534
2651,2.152235386546362
2652,2.1591925428815437
2653,2.092840168138445
2654,2.2540954537059075
2655,3.6074865315093585
2656,3.547828208944558
2657,3.082658254905047
2658,3.179827286042186
2659,2.270305330456578
2660,2.235401752441189
2661,2.2339727284191833
2662,2.4433917676342793
2663,2.5316233262308065
2664,2.1839474064564994
2665,1.6996674040249327
2666,1.9598029569249376
2667,2.1389485588268866
2668,2.6546270453681333
2669,3.1142672680136823
2670,3.8118694732503755
2671,3.4717774888875983
2672,2.2825003351199142
2673,1.5226665932028842
2674,3.221113663726357
2675,3.3527753054150766
2676,2.748230302238573
2677,2.7473464385359225
2678,2.5435625441179623
2679,0.9409995635479198
2680,2.335395512104753
2681,2.5938373846717693
2682,1.9038630501842224
2683,1.6154990254990966
2684,2.387566580903006
2685,3.053391706876204
2686,3.3755669698680344
2687,3.309465785598075
2688,3.3808886048177453
2689,3.8127002824795917
2690,4.08415933100268
2691,3.800415312892886
2692,4.9121090071686115
2693,3.8367417065671883
2694,2.8998946057815287
2695,2.2661328500634053
2696,2.33370130326366
2697,2.4524007288690126
2698,2.2252487779760877
2699,1.8530892555047134
2700,2.155584505301333
2701,2.037710544435117
2702,1.9130465783980195
2703,2.2898240938074887
2704,2.6767116511681666
2705,3.041281915796538
2706,2.085808770392148
2707,2.172780088764423
2708,2.6616413780102084
2709,2.6407781474813796
2710,3.2545589031659192
2711,2.8594894493439087
2712,2.656649436492979
2713,2.241117723932295
2714,2.066072496891124
2715,2.2144348976714063
2716,1.4618016430250242
2717,1.1752347061604704
2718,1.236401845662315
2719,1.9898611421890222
2720,2.1569746447910196
2721,2.2496038556568743
2722,1.631517353780201
2723,1.5429477031942493
2724,0.770054331104905
2725,1.2147073925204148
2726,1.92102438709682
2727,2.698211704160722
2728,2.158465123406164
2729,2.5733561618129146
2730,2.610458591817965
2731,2.9108350137111163
2732,2.6061434701633446
2733,2.3241604806245713
2734,2.022286364707387
2735,1.9919151325173177
2736,2.0467953385289035
2737,2.5748973476897214
2738,2.342874005267973
2739,2.939160855927185
2740,2.4432377746594653
2741,2.0740329776090145
2742,1.7183529292515676
2743,1.8431834813019308
2744,2.3834835893662993
2745,2.008526649037332
2746,2.271821911561514
2747,1.831103164682911
2748,1.4767662126075227
2749,1.1267843338571433
2750,1.8526321539205066
2751,2.404805938806338
2752,2.1483263221514877
2753,1.050634459549565
2754,1.6782976989426603
2755,1.7734753477713796
2756,1.8756580843012567
2757,2.5805431203304647
2758,2.35383173993016
2759,1.9578939585783994
2760,1.439875929359772
2761,0.5789254990828057
2762,1.0964353581613469
2763,2.4517737343055117
2764,1.826313677684311
2765,2.1739968274905253
2766,2.0057970242135275
2767,2.0015566422425217
2768,1.9468624388445888
2769,2.1688099066859223
2770,2.57073380795217
2771,3.0439389827157943
2772,2.7196977664802624
2773,1.416638975451924
2774,2.2677582755509396
2775,2.223763726413003
2776,2.4526529386077964
2777,3.0363023995503093
2778,2.2795203541293385
2779,1.7806376405445035
2780,1.9549932310593436
2781,1.3686427746963494
2782,2.2228226108396263
2783,2.111061440171261
2784,2.652652964705561
2785,1.8463419386781204
2786,1.6171873954995921
2787,1.950242061728569
2788,2.420336062889665
2789,2.16291177918075
2790,1.304191684215683
2791,1.2260250287583634
2792,1.171163753227206
2793,2.115237293340836
2794,2.388407540923006
2795,1.867244479652923
2796,1.6570934410565348
2797,0.9663395534890096
2798,2.1495542140587554
2799,2.214753702742808
2800,2.8800057566318373
2801,2.634685541649968
2802,2.1283843694620135
2803,2.073325442484999
2804,1.048458213211999
2805,1.6399545646078522
2806,1.5251498140715698
2807,1.857161428761549
2808,1.7669620174228762
2809,1.615200152558223
2810,1.3001567080176841
2811,1.6461974321454964
2812,3.0148260177695265
2813,1.7242952953304143
2814,2.077268352610818
2815,0.7363026278535774
2816,0.43359814425562776
2817,1.7333377878850629
2818,2.4972952388322684
2819,2.255638928226889
2820,2.0693144900825193
2821,1.5818080542742483
2822,2.09214854538621
2823,2.226056328878621
2824,1.923528191531569
2825,2.5084207597121226
2826,2.561419801396933
2827,1.9026170875642139
2828,1.5513379712163793
2829,2.140897214040775
2830,1.915127918710678
2831,1.6639661694871812
2832,2.2781576064891578
2833,1.3421626544707004
2834,1.4124809304138275
2835,1.5193733026265617
2836,2.215397540979145
2837,2.492108171391172
2838,1.9448402245524874
2839,1.92102438709682
2840,1.0343910841758255
2841,1.3846392729605108
2842,1.3506901654171863
2843,1.858322743606975
2844,0.9199409176702479
2845,1.6215065633530852
2846,2.1332891878511866
2847,1.4829851275073151
2848,1.2298445788900507
2849,2.3204674429645378
2850,2.263087343466454
2851,2.4261650341270045
2852,1.79236888370144
2853,1.4380005202643342
2854,1.8993672173996208
2855,1.3200347308689895
2856,2.259209355156936
2857,1.7410950559456673
2858,2.3851239601760814
2859,2.0411638236383713
2860,2.5556221165986654
2861,1.6532367857355934
2862,1.3615735604589396
2863,1.568281357063605
2864,2.59446498120135
2865,2.267174568134902
2866,2.2913885483958434
2867,1.44845609585969
2868,1.5476163876550952
2869,1.6280700083779527
2870,1.8292180049748918
2871,1.7499885764660383
2872,2.0362358269155156
2873,1.3506901654171863
2874,1.762079004125814
2875,1.6568489302954479
2876,1.6170967135422631
2877,1.6858291590138785
2878,1.707759360544252
2879,1.2462074475262814
2880,1.7513730451425447
2881,1.6140907102041908
2882,2.310331332389644
2883,2.198788249191546
2884,1.971564021907955
2885,1.9688267365513563
2886,2.029237275376494
2887,1.451705503312798
2888,1.9288124419490473
2889,1.9701297015793657
2890,2.4912773390583474
2891,1.8762522640136572
2892,1.2929139073545646
2893,1.7905229152261657
2894,2.1759881567947086
2895,1.110313832164286
2896,0.9440199749868403
2897,0.9028355342711474
2898,1.7997909652651691
2899,1.8136581265523908
2900,2.329716570729237
2901,2.1385184629330047
2902,2.3646173752638115
2903,1.6320772095223242
2904,1.1852548188627232
2905,1.433074468686909
2906,2.096439248064831
2907,1.5380316294881458
2908,2.539601064938792
2909,2.0229793978953796
2910,1.3504134404841974
2911,1.7880674453057441
2912,1.429114621175485
2913,2.172725877561349
2914,1.760581644462042
2915,1.8646865742282255
2916,1.3340438467153453
2917,1.345359349033045
2918,1.2939295187174051
2919,1.29481541154323
2920,2.3793384351898235
2921,2.4817872449162115
2922,2.6541948674498825
2923,1.8267106566892208
2924,0.4300478263293477
2925,1.7369088075354804
2926,2.4023279560248008
2927,3.359497200571484
2928,2.5582335420387405
2929,1.6840994636988258
2930,2.2789317798015323
2931,1.633758854999891
2932,1.5949618260484975
2933,1.4924533699318603
2934,1.2765197978459009
2935,0.9446684026561263
2936,1.9215541188711065
2937,2.0327305298084135
2938,1.8916124148071278
2939,1.2305018603717655
2940,0.7773673281188488
2941,1.3789276937841526
2942,1.5481576989779677
2943,1.417332915067461
2944,1.6041732042169699
2945,2.3554570602323874
2946,1.8300357909611178
2947,2.23742428627802
2948,1.5126029736867754
2949,1.3139798859709348
2950,1.164307177296472
2951,1.8765917885711094
2952,1.9912299051535995
2953,2.1283843694620135
2954,2.070738593744956
2955,2.2125505343430216
2956,1.3135304798572083
2957,1.2725851706986266
2958,1.3340438467153453
2959,1.5137197895587153
2960,1.2831157475920378
2961,0.8610701807371592
2962,1.9769934354036474
2963,1.5829004352342402
2964,1.7548047398257889
2965,1.9025465536758632
2966,1.2625094722813446
2967,1.8192291651218153
2968,1.1240698308157129
2969,2.146600130517522
2970,1.7781822319944955
2971,1.301497326282545
2972,1.655017503368672
2973,2.0476178346382157
2974,2.1583626506639386
2975,3.171936604103193
2976,2.3368903690296157
2977,2.24059822103563
2978,1.8006440703821085
2979,1.183288088374695
2980,0.8069279913864952
2981,0.6170027249333211
2982,2.228281606824872
2983,2.979077725830311
2984,3.0082390524136096
2985,2.10733080025593
2986,1.1875052401493635
2987,0.09674817570387927
2988,-0.4316320199353575
2989,-1.020046908553178
2990,-1.3597737360842945
2991,-0.08253281888277045
2992,0.1841255607790771
2993,1.363924321689525
2994,1.9327727278686404
2995,2.018941202696041
2996,1.7766789062000619
2997,1.3586429234607256
2998,0.683072152757082
2999,0.5353207798018109
3000,1.7300257517832784
3001,2.5600577616777382
3002,2.216602348587885
3003,2.504462251258075
3004,1.2556697709032756
3005,0.33102127567757167
3006,0.4716140155661958
3007,1.149818294811941
3008,1.2401445744067623
3009,1.887147914078538
3010,1.6106293691325948
3011,1.7688635754833117
3012,1.356272035162157
3013,2.079736127110119
3014,1.97250244349722
3015,2.49751684064378
3016,2.3190283574158785
3017,2.577348894020359
3018,2.777513694508745
3019,2.160004145885607
3020,2.3978227069064
3021,1.9898360789995564
3022,2.160534293425
3023,1.7470725613353384
3024,1.4747263886345532
3025,1.2185628558396653
3026,1.9294467390836703
3027,1.613331296642621
3028,2.148842138989605
3029,1.9283210833226208
3030,1.5380564721390257
3031,1.0689347907845712
3032,1.4914376337841027
3033,1.2976407456484524
3034,1.9304238599811536
3035,1.8360457912201293
3036,1.1005904592360687
3037,1.7348261491775714
3038,1.9694810441123618
3039,1.659436032899779
3040,2.2313574428509915
3041,1.6004257644234001
3042,2.1178533802587465
3043,2.0506308553136843
3044,2.4628150705136154
3045,1.7889665251228606
3046,1.9665270727181146
3047,2.194106505730437
3048,2.597404196654074
3049,2.3675955898949685
3050,2.170233251145454
3051,1.6795087385947485
3052,2.6570473545707087
3053,3.0862520835631138
3054,3.11839326790838
3055,2.7007764383307085
3056,2.259893467773383
3057,2.626949059393131
3058,2.2940872431791894
3059,2.5801855778338822
3060,2.4920956307913493
3061,2.2601159673642943
3062,3.1612493493216105
3063,2.7037045947264478
3064,1.6896456181160648
3065,2.0432151800667517
3066,0.5553748082920745
3067,0.6197763881161662
3068,0.5737964153723772
3069,0.1658976444129273
3070,0.6998571640588214
3071,0.1842820873796331
3072,0.28240485366104917
3073,2.2496371058681324
3074,2.5066339370024058
3075,2.2621267436796932
3076,2.0972175708166376
3077,1.5074339815076427
3078,1.8671118185317332
3079,1.3472960483057457
3080,1.4807576269247626
3081,1.4846887483614706
3082,1.0997790511732912
3083,0.7480319725013903
3084,0.4353659225701502
3085,1.4713972828095832
3086,1.8829726330032126
3087,2.6752706365167036
3088,0.848143112631458
3089,0.741868734614203
3090,0.8524978507357308
3091,1.0144345427818566
3092,1.6951466918045082
3093,2.3530669012810286
3094,2.4594438272315746
3095,2.005117743153317
3096,1.6542877219125167
3097,1.6385225019425682
3098,1.2707409896324005
3099,1.2730277433860386
3100,1.101059698338
3101,0.9985544792624964
3102,0.7866952985887912
3103,1.1183154993785351
3104,0.4925976352090338
3105,1.134586608821357
3106,1.2493418138913641
3107,0.3309928012528415
3108,0.4834254330388612
3109,1.0121825576494736
3110,1.5477040373530193
3111,1.3508247816606145
3112,0.8831976167872658
3113,0.4294197617109557
3114,1.3235368503404654
3115,0.9739685384032531
3116,1.30037228427921
3117,1.1169942917241207
3118,1.0326994119398225
3119,0.6225693505970417
3120,2.3922052326984904
3121,2.309057803134049
3122,1.8595934324629884
3123,1.769902925877961
3124,1.0568690083251993
3125,0.3882667324004943
3126,1.0036139182306032
3127,1.7026617109400481
3128,0.8425234522586665
3129,1.7145302514375427
3130,1.3248103221970302
3131,1.7484268852072475
3132,1.0413212716398892
3133,0.380311143449761
3134,0.6838462318860578
3135,0.6577838249725126
3136,0.06654118526418192
3137,0.6077050621599769
3138,0.5085230340784447
3139,0.9508793250786461
3140,1.826007756957456
3141,1.4705118136310487
3142,1.3651459533595955
3143,1.0649752914290476
3144,1.3555586083107976
3145,1.3294789636196613
3146,1.006257561654364
3147,0.24990095023521244
3148,0.7760405933586811
3149,1.5477040373530193
3150,1.2335640727659345
3151,1.2367588489363346
3152,0.9334528482704479
3153,0.5689194812547312
3154,1.210999908925254
3155,1.2388979075924074
3156,1.513854326730088
3157,1.6600354932686339
3158,1.2726556930334774
3159,1.291662532824764
3160,0.6084220900741519
3161,0.953138952308001
3162,2.1329030278073358
3163,1.9669552483955044
3164,1.633275367194664
3165,0.9438868417892193
3166,0.9915258643659675
3167,0.6392088450924066
3168,0.8476511119457093
3169,0.7605887777337051
3170,1.391120226356259
3171,1.3364346426633047
3172,1.3098612476434117
3173,1.2339736910690537
3174,1.981877224351513
3175,2.065618205862672
3176,1.758382318548621
3177,1.2996768019188272
3178,1.7982265877771975
3179,2.020971337221263
3180,1.6135349760871924
3181,1.3172909336132688
3182,1.3777485263188132
3183,1.0245267449130238
3184,0.8688203184511472
3185,1.306514853591035
3186,0.8707886215967039
3187,1.160343680751332
3188,1.0528619005113193
3189,1.0834391357622408
3190,1.6255685993964692
3191,1.5721007976605583
3192,1.0313452886268621
3193,1.794057161689079
3194,0.8826841403905294
3195,1.3947162067136025
3196,1.609002544398732
3197,1.584120325027617
3198,1.1494219044702096
3199,1.1955598044407911
3200,1.7023417170311221
3201,1.3797469211748639
3202,0.9704639282908614
3203,1.089460370133035
3204,1.584120325027617
3205,1.557200058281111
3206,1.170501512054412
3207,1.1547932077342606
3208,1.5395621621223357
3209,1.2865834457935443
3210,0.9492856913392593
3211,1.3801471652078288
3212,1.6385047830334176
3213,1.5679826093247469
3214,0.8710937793920659
3215,0.8485120934838681
3216,1.1403973597414632
3217,1.0940524210210225
3218,1.3587329108239663
3219,0.9053838858652709
3220,1.3983943593537427
3221,1.5864974405186631
3222,1.8390613019338489
3223,1.391452183195698
3224,0.8410394760911204
3225,1.2640396111173704
3226,1.2102894866992917
3227,1.6542276250748524
3228,1.8196255436494864
3229,2.208979205267764
3230,1.3329946780449013
3231,0.2348155752479024
3232,0.2348155752479024
3233,0.3853150964991981
3234,0.5844588615759843
3235,0.18110482577365059
3236,1.2925360213666752
3237,0.7197130471065107
3238,0.9419472774528554
3239,0.9196458153779523
3240,0.7529622617772322
3241,0.6174919542949063
3242,1.1598745479811863
3243,0.8990701187588854
3244,0.22003757997101034
3245,0.997788633193129
3246,1.1917412416792033
3247,1.0394928702833817
3248,1.5757797331436292
3249,1.1558059113766148
3250,0.8824277305883353
3251,0.6146276569365073
3252,0.5008185616456036
3253,0.7405612364122062
3254,1.1133771805241188
3255,1.0821973764711017
3256,1.2767596335713014
3257,0.68146578683073
3258,1.3576205643212707
3259,0.6334439417397587
3260,0.8834544742307858
3261,1.2715188623659008
3262,1.218872772520734
3263,1.1732403227855472
3264,1.3213302986522868
3265,0.9088409346657568
3266,0.7174077984409831
3267,1.0859663302299674
3268,0.991816787016415
3269,1.7747457368743207
3270,1.301190074053411
3271,1.8304390559538952
3272,1.5948627083701712
3273,1.2014783732048953
3274,0.4523196804340383
3275,0.971870896423606
3276,1.3516114023373362
3277,1.5145136851798424
3278,1.4636832502754378
3279,0.6180319937893443
3280,1.7010150687809134
3281,1.3326098180080828
3282,1.907477029328157
3283,1.4584845385893677
3284,1.3431485740646347
3285,1.015596378420674
3286,1.6360940156233728
3287,0.9713028635121934
3288,0.7855104204203075
3289,0.7954876143127256
3290,0.6164147015930589
3291,1.3767122980930173
3292,0.8675429049570337
3293,0.7692459496258652
3294,0.6448885509406914
3295,1.4185869482214828
3296,1.3587329108239663
3297,0.7264772195577884
3298,0.9611899422175868
3299,1.221007381889309
3300,0.8540923863726466
3301,1.0299607421291237
3302,0.5699181055682907
3303,1.1799897369449455
3304,0.8055060877674113
3305,1.089460370133035
3306,1.5016596061137624
3307,1.6575579921307835
3308,1.48918360821178
3309,1.3584055839818439
3310,0.9326389330214322
3311,0.4799346882777591
3312,-0.2192602971375514
3313,0.835501008498342
3314,0.6360345570530808
3315,1.1602148016445724
3316,1.308044097910453
3317,0.9581417867520615
3318,0.9213410257738512
3319,1.0878694108998646
3320,1.0577980506715292
3321,1.6466468466379394
3322,1.5581104587062635
3323,0.8657784033737019
3324,1.6184696846793116
3325,1.3482838233641445
3326,1.4232005130779113
3327,1.0831241595029724
3328,1.1161159483911578
3329,0.787577901131257
3330,1.9058079635040777
3331,1.2914157031459905
3332,1.5189739928930488
3333,0.8716033766716165
3334,1.111414041784465
3335,1.3167186027865627
3336,1.3027070284905298
3337,0.8329701473541808
3338,1.3333947565150455
3339,0.9506672996471484
3340,0.8496226480236998
3341,0.940291158470722
3342,0.32197419153927564
3343,0.874160541388189
3344,1.6561591273767098
3345,1.402004720421938
3346,1.3155707034588056
3347,0.5349889322752294
3348,1.0720739523916387
3349,1.175302890626481
3350,1.1782811232519872
3351,1.0834391357622408
3352,1.6142400113773239
3353,0.39799007564268557
3354,0.04971484601796554
3355,0.5985355210161699
3356,0.9631398570107663
3357,1.6236694106874965
3358,1.9206315564880678
3359,0.9209138350132874
3360,0.0
3361,0.426741185806152
3362,0.34552591659112664
3363,1.2175619012833925
3364,1.465276271853996
3365,1.0874729167533064
3366,1.2909094258466212
3367,1.701662346416681
3368,1.4157345937906747
3369,1.6096898258180568
3370,1.444382073573706
3371,2.0142921637728683
3372,1.8601825687306965
3373,0.7176500792519899
3374,0.33746021740747667
3375,0.4543796452469919
3376,0.7410255696963829
3377,1.5927006557938685
3378,1.6688997532773595
3379,1.4222020026291764
3380,0.4416287198432712
3381,0.16122927578387194
3382,0.359586736402326
3383,0.29200556623593055
3384,-0.20963342796470621
3385,0.7578309790600569
3386,1.0310459375079915
3387,1.7396035977220605
3388,1.262512654297066
3389,0.8581215328743288
3390,0.6721948450771296
3391,0.510445661955479
3392,0.5489925678133912
3393,1.3743500345653301
3394,1.5191854045133482
3395,1.5170110073402303
3396,1.833444235846106
3397,1.0572194399194528
3398,1.4645425229921787
3399,1.5873969664296481
3400,1.8005985367505086
3401,1.8461905815122233
3402,1.4978714382596656
3403,1.8253071313567901
3404,1.4547184609495099
3405,1.6908368281997952
3406,1.7838197858309743
3407,1.2118701792664701
3408,1.7075766002179353
3409,1.249887569120216
3410,1.4801803483132132
3411,1.1953091627041459
3412,0.7352557079252527
3413,1.3540841149841956
3414,0.6846024180123301
3415,1.146622577238139
3416,0.6869309683069854
3417,1.4171261199090637
3418,0.8379802435493837
3419,1.2523207177832485
3420,0.9511832268284701
3421,0.6176361069308529
3422,0.9702835019393194
3423,1.3580157738618621
3424,0.660393704275052
3425,1.5104868339640352
3426,1.0447879308911974
3427,1.0716362626493952
3428,1.0801052127682653
3429,0.7638978339172664
3430,0.4788998591090629
3431,0.9379875207648105
3432,1.1601487496934586
3433,1.5781546901102501
3434,1.5846193124496617
3435,1.6553968204580494
3436,1.3879145208006265
3437,1.6096572814317687
3438,1.5116361277797514
3439,1.488804380827
3440,1.758782553311684
3441,1.3850896753567508
3442,0.8678279241781134
3443,1.1523873837222938
3444,0.8510071788207817
3445,0.7975333579434246
3446,0.7665974577863667
3447,1.1022618330573584
3448,1.0776276716651363
3449,1.1050586878414916
3450,1.4829571470753762
3451,1.8326043121034614
3452,1.9609180713027932
3453,1.8664070977732663
3454,1.170632150172524
3455,1.3914617828800522
3456,0.8298890828579731
3457,1.4288467590093255
3458,1.1826735289174475
3459,1.3227564997002603
3460,1.04903845248068
3461,0.9872501473587769
3462,1.0102178907924093
3463,1.3113199403531677
3464,1.7646490539278232
3465,1.1404964456678524
3466,1.3764726636298947
3467,0.9169992106359866
3468,1.0913507266131426
3469,1.1411397894325654
3470,1.3806970865077552
3471,1.5754885706567356
3472,1.8745697107419168
3473,1.392932481658453
3474,2.536756431215533
3475,1.783116813050872
3476,1.9962107965203313
3477,1.9694810441123618
3478,1.8126422721276172
3479,1.3169069046870854
3480,1.58835631324122
3481,0.5736528351315785
3482,0.6900993092157218
3483,0.07237782899771598
3484,-0.043675792606010434
3485,-0.3923259362002369
3486,-0.1160401619676547
3487,0.31975664642604035
3488,0.5813650377714982
3489,0.696919197166715
3490,0.1743217786672268
3491,0.42375477131970113
3492,0.7004691750696302
3493,1.415511499504667
3494,1.7161560627099692
3495,0.7248471119169446
3496,0.6360976318536838
3497,1.193489423982035
3498,1.3727064463653496
3499,1.745559444319348
3500,1.6261154838171308
3501,0.983456689910485
3502,0.9602567241099743
3503,1.6310672658107417
3504,1.4059310846942472
3505,1.6899102156386698
3506,2.16080010669838
3507,1.8330693513163145
3508,2.2392300489656196
3509,2.2064985753958704
3510,2.5966327048283073
3511,2.4038070959784905
3512,2.2036977526483517
3513,3.0299753387625414
3514,3.002219767815837
3515,3.0720859876625015
3516,3.2416052553394077
3517,2.9397482176892753
3518,3.047860180091846
3519,2.801447398534176
3520,3.8734848260897623
3521,4.076482347333512
3522,2.9611767897547723
3523,1.5190065363668868
3524,0.38319106299674655
3525,0.9089273984282856
3526,0.4286336607592631
3527,0.2559046271688121
3528,1.3395063963346614
3529,0.7197576829578531
3530,1.2519278606555808
3531,0.028503471933702982
3532,0.7343374683006748
3533,1.541280919246578
3534,1.4197958957602383
3535,1.716797360267582
3536,1.4462661104723535
3537,1.0701539465329108
3538,1.6414211334315967
3539,2.214672330212711
3540,2.335255687094043
3541,2.401313896598457
3542,2.1599916973831244
3543,2.485782126744735
3544,1.6922713623515988
3545,2.4002967915666513
3546,2.413713375823016
3547,1.3537473571402554
3548,0.24008294085707177
3549,-0.3534081403562185
3550,0.0
3551,0.9798118900934761
3552,1.387761734419807
3553,1.3757407365497492
3554,1.0398121534974976
3555,0.39640311296609804
3556,1.3711358798633397
3557,1.6923989250810363
3558,1.383681487782609
3559,1.0619870095090067
3560,0.9308449198708676
3561,1.237993659245654
3562,1.7949207998811212
3563,2.620500811696313
3564,2.613104423658199
3565,2.347346966625682
3566,1.8569588320711903
3567,1.2794882131759076
3568,1.9149484619756443
3569,1.7109016207453607
3570,2.333738006201805
3571,2.491434522518441
3572,2.1448499730395096
3573,2.3103486097031776
3574,2.109789586243751
3575,3.0296171013916866
3576,2.8537251368211183
3577,3.4550602881659422
3578,3.219850823075957
3579,2.5495981415309745
3580,2.2888825421141625
3581,2.404627531323692
3582,2.720803015225287
3583,2.4341832510165933
3584,2.2103674649175242
3585,1.880720817586347
3586,2.18040479057147
3587,2.4199065579436674
3588,2.139154695565745
3589,2.62086129320709
3590,2.281374978168428
3591,2.7692718223491313
3592,3.5790405270878773
3593,3.702209351960406
3594,4.043465016644167
3595,3.202918368513685
3596,2.547975801963964
3597,2.984279746505254
3598,2.9894899724748427
3599,2.9188261325622316
3600,3.1743283895784864
3601,2.33292375034525
3602,2.467868776379511
3603,1.820102878289261
3604,1.2218916998349914
3605,1.5096822856936152
3606,1.5627362332015895
3607,1.5381514374017027
3608,1.2839206077213512
3609,1.27110303224041
3610,0.8918026539541999
3611,0.6430987947681737
3612,0.7324911927007282
3613,0.8728178780751014
3614,0.085213598402076
3615,-0.2690553957213899
3616,0.28406058994122524
3617,0.14209871668351073
3618,1.214618324302916
3619,1.801608823043563
3620,0.7442425055253945
3621,0.6014284523365659
3622,1.6497982384270862
3623,1.3968284590728959
3624,1.9804527392946676
3625,2.8508446247024493
3626,2.1404913252981936
3627,1.5442538174299794
3628,1.6711282351563888
3629,0.9245089441678442
3630,2.303421606622853
3631,2.384112117278528
3632,2.6052143199324638
3633,2.3780948123988015
3634,2.108356861126522
3635,1.9370751111420872
3636,2.692080770588512
3637,2.7902330359826837
3638,2.718821858752509
3639,2.6357179936845583
3640,2.319387691196731
3641,2.353488738675276
3642,2.0039513208822233
3643,1.890072199614389
3644,1.6382155181803892
3645,2.041329268114947
3646,1.3659559911576835
3647,1.9422023800527934
3648,1.394400474011035
3649,1.2276751687585088
3650,1.2832744119669113
3651,1.719942066816043
3652,1.9914576067376244
3653,1.5317609681969864
3654,1.74487474228307
3655,1.1743970866971893
3656,1.9206057931517808
3657,1.9670144072167153
3658,2.3281636166575446
3659,1.8971814723252054
3660,1.737016849103679
3661,1.5150945244299718
3662,1.4661909095583405
3663,2.1151953052704657
3664,2.247705503128784
3665,2.63684886979669
3666,1.7759295547952563
3667,1.9680523538379309
3668,1.7400192184003862
3669,2.4409164001211003
3670,1.7019158538769397
3671,1.6200537188875541
3672,1.4795788999720845
3673,1.6100645681947483
3674,1.703353458542235
3675,1.5575903308170351
3676,2.18040479057147
3677,2.2208840807796943
3678,1.5709140233715189
3679,1.7573360316879603
3680,1.4234692731260172
3681,1.8726851019302957
3682,2.0413043652683114
3683,1.5590737171526683
3684,1.81530363428073
3685,1.9129521668082066
3686,1.9962107965203313
3687,2.283766251920635
3688,1.6038616035616173
3689,1.391583227689289
3690,1.625073363370239
3691,1.768356411269782
3692,2.059697572287502
3693,2.214833081462012
3694,2.072107086659138
3695,1.9376251528818196
3696,2.111652797887853
3697,1.3891488606965883
3698,1.3338677482611472
3699,1.279659525125598
3700,1.6030605449316664
3701,2.339348165833029
3702,2.1756452250564258
3703,2.9101021156320233
3704,3.7987121893358866
3705,3.088243606976444
3706,3.443937435987687
3707,3.434202363034187
3708,2.650147996771959
3709,2.8372401437510346
3710,3.146221340326727
3711,2.928247628871263
3712,2.635905494122068
3713,3.268821509801962
3714,2.6071337758425304
3715,2.561827265229099
3716,2.1463174298928487
3717,2.3396594608647527
3718,2.1189605814141763
3719,2.013362019840922
3720,1.2207261084514833
3721,1.6497982384270862
3722,1.4643818854418231
3723,1.6007463386056382
3724,0.7252236251355542
3725,0.8771987888236134
3726,0.25885929696799287
3727,0.9558023381695339
3728,0.4484020124133664
3729,1.1414275561593048
3730,1.0795626107392706
3731,1.2472497090205106
3732,0.5651096337127955
3733,0.4669943595810146
3734,0.40531638221822447
3735,-0.24344321956483445
3736,-0.3863491413345084
3737,-0.17123914593186412
3738,-0.08669650883736259
3739,0.0
3740,-0.5056217706175901
3741,0.5468901035896686
3742,0.62086968130909
3743,0.5001988404448307
3744,-0.21566141279945314
3745,-0.11368021648376467
3746,-0.39946291758387925
3747,0.1435225529547956
3748,1.1955837933212166
3749,0.867171241402844
3750,0.9741776755805733
3751,1.0421436422290986
3752,1.4013593720775146
3753,1.6972570114792012
3754,1.5863757328222898
3755,1.9675627406807075
3756,1.6058680019766132
3757,2.241547626654424
3758,2.1839483298841715
3759,2.4969423543603964
3760,2.7059907368624176
3761,2.6438543652081075
3762,2.2549077134017383
3763,2.4833540743677647
3764,2.868102725244353
3765,3.519252326730906
3766,3.567504145994065
3767,2.8230592945036794
3768,2.6348838429890673
3769,1.762603166267901
3770,3.4621727422289608
3771,3.480887421478613
3772,3.9854775876156685
3773,3.754102528286034
3774,2.8862921855896606
3775,2.6365679372519275
3776,2.807346691995585
3777,3.1323928902723335
3778,3.3290814854229125
3779,2.889673988718716
3780,2.530914795092221
3781,2.9098726977046336
3782,2.58247986612559
3783,2.8355096095430414
3784,3.6032850180430835
3785,3.8893111915572747
3786,3.616328617246786
3787,3.8625124148496606
3788,3.4347901773994236
3789,3.4506941635148705
3790,3.562842765668904
3791,3.3613123820200537
3792,3.561832305431366
3793,3.585455459731388
3794,3.7726002068858837
3795,3.9362314591613083
3796,4.408636429934594
3797,3.1734590038369683
3798,3.1512367383259465
3799,1.8974836062653855
3800,1.936098387127885
3801,1.7483939475174664
3802,2.4490380329262216
3803,1.9604214033302523
3804,2.257076701608004
3805,1.6127270263639037
3806,1.6439237616560924
3807,1.9349298228726515
3808,1.1988988334114377
3809,1.0574722080806778
3810,0.6765762470759018
3811,0.661681593383523
3812,-0.028877006915423005
3813,-0.014494002209834302
3814,0.043576126610487945
3815,0.40016040047473955
3816,0.4878530500475029
3817,0.28907670084991366
3818,0.6474589056768224
3819,0.9422287182840553
3820,0.761598935351203
3821,1.1720878148762734
3822,1.535633127907815
3823,1.7198136692562898
3824,1.8476057109966542
3825,2.2367532179067173
3826,1.9897300790297048
3827,1.6611070832009127
3828,1.5811581775406214
3829,1.9620994156500713
3830,1.643159619900043
3831,1.6287517270146377
3832,1.447129121210491
3833,1.243159538081699
3834,0.5175839658319216
3835,1.373115584671888
3836,1.580856639279168
3837,2.0753309495990107
3838,1.9110481814007307
3839,1.7676504710195462
3840,1.3774452185175383
3841,1.9025272118607246
3842,2.4435485971971893
3843,3.0589130493602434
3844,2.765621431227287
3845,2.0053133983156655
3846,1.5273283976887095
3847,2.0743919632732766
3848,2.073668793301677
3849,3.071110502020928
3850,3.73610048385814
3851,3.4577768453197875
3852,1.957209114550847
3853,1.7189249946145686
3854,2.060005452095724
3855,2.223959266434065
3856,2.502981171654232
3857,2.586986407465927
3858,2.6563666872799336
3859,2.779165849756253
3860,2.8174265924005413
3861,3.694144370515213
3862,4.18352099884855
3863,5.212650847509682
3864,5.294365642748442
3865,5.034380326818058
3866,4.856598749279766
3867,4.338167846964526
3868,5.102930981136217
3869,4.3766409229935
3870,3.789756111357234
3871,4.3300958991492235
3872,4.4355953063573565
3873,4.335166112518477
3874,4.499910988948206
3875,4.040253106999512
3876,4.17329000443239
3877,4.037705723124204
3878,3.860376463164702
3879,2.9644518758768834
3880,2.1005824878562938
3881,1.4074384225093648
3882,1.6812709975741
3883,1.7863106515872642
3884,2.051034182074142
3885,1.4263321706797383
3886,0.675896992435968
3887,0.20108579880411337
3888,0.18695487111649395
3889,0.3734429738449224
3890,0.2593801255536626
3891,0.44716027796667795
3892,0.5035902253123063
3893,0.8355318008636303
3894,0.7732482753599531
3895,1.1148929895219988
3896,1.0088241962944553
3897,1.4588996743404872
3898,1.5212675875736732
3899,0.21225262826342128
3900,0.0
3901,0.11092901082038002
3902,0.08263260885268262
3903,-0.3155936321896587
3904,0.9817870016680651
3905,1.3485447436945859
3906,0.3221263680457769
3907,-1.4257149903090482
3908,-2.4810740677479166
3909,-3.654383850237555
3910,-3.1457573994150274
3911,-2.615967476685114
3912,-3.091740963437757
3913,-1.9763722868138804
3914,-0.10016363039444083
3915,2.153076283233289
3916,5.689087791696034
3917,5.193082306325963
3918,2.171819754120758
3919,0.26620935719060673
3920,0.1925615455785468
3921,-1.5135554557793125
3922,0.7285432194625177
3923,1.9584279248018217
3924,4.1475694955354205
3925,4.7222822447134964
3926,5.291883618503979
3927,6.24363678336722
3928,6.964097517041528
3929,8.36097129155812
3930,8.43576724768716
3931,7.4584957482452365
3932,7.501766401998383
3933,7.891395308201749
3934,8.705745934383613
3935,9.777888168934238
3936,10.091891215139581
3937,8.567987213853785
3938,8.611395595418024
3939,7.559195866259554
3940,6.309146310646292
3941,5.389311759973409
3942,6.437739192627111
3943,7.360825481142906
3944,8.912247137771727
3945,10.13986623609586
3946,10.390547806522978
3947,9.045369850201626
3948,7.87177790569889
3949,7.146708007212503
3950,8.048469439471777
3951,7.985198668596604
3952,8.554907846779026
3953,7.799983519429013
3954,6.751813011030236
3955,5.366122987586724
3956,4.720830357923271
3957,4.41889628604969
3958,3.0449484207854667
3959,-3.0066729219273087
3960,-9.718788006176643
3961,-11.950114681348994
3962,-11.829314483384197
3963,-10.46214472493673
3964,-11.609161880825996
3965,-16.595029031121168
3966,-19.449176511960577
3967,-17.830073366487447
3968,-15.503091157924102
3969,-12.459216342876505
3970,-7.822879860255551
3971,-3.981790732128016
3972,0.4645913490758078
3973,4.345123481834027
3974,9.425148244504253
3975,14.38217122046462
3976,15.511360728908228
3977,14.047469703421948
3978,13.275724872440604
3979,11.066121694742716
3980,10.865981746974812
3981,9.646740862629358
3982,7.50113186745873
3983,8.361909830105136
3984,9.170115751435809
3985,11.67006459187456
3986,14.472491105946252
3987,16.1434585766477
3988,17.321225969580013
3989,18.85085035113354
3990,20.34286672670607
3991,21.531460530010698
3992,22.4650000687595
3993,22.336499641941995
3994,21.606459987194548
3995,20.9368598741427
3996,20.17845865908744
3997,20.081441591107986
3998,20.297800192529753
3999,20.816281429352635
